<?xml version="1.0" encoding="UTF-8" standalone="no"?>
<!-- Created with Inkscape (http://www.inkscape.org/) -->
<svg
   xmlns:dc="http://purl.org/dc/elements/1.1/"
   xmlns:cc="http://creativecommons.org/ns#"
   xmlns:rdf="http://www.w3.org/1999/02/22-rdf-syntax-ns#"
   xmlns:svg="http://www.w3.org/2000/svg"
   xmlns="http://www.w3.org/2000/svg"
   xmlns:sodipodi="http://sodipodi.sourceforge.net/DTD/sodipodi-0.dtd"
   xmlns:inkscape="http://www.inkscape.org/namespaces/inkscape"
   id="svg2"
   sodipodi:version="0.32"
   inkscape:version="0.46"
   width="388.02438"
   height="201.4425"
   xml:space="preserve"
   sodipodi:docname="cenatic.svg"
   version="1.0"
   inkscape:output_extension="org.inkscape.output.svg.inkscape"
   inkscape:export-filename="/home/dam/work/debconf-git/media.debconf.org/dc9/sponsorlogos/bronze/cenatic.png"
   inkscape:export-xdpi="28.99"
   inkscape:export-ydpi="28.99"><metadata
     id="metadata7"><rdf:RDF><cc:Work
         rdf:about=""><dc:format>image/svg+xml</dc:format><dc:type
           rdf:resource="http://purl.org/dc/dcmitype/StillImage" /></cc:Work></rdf:RDF></metadata><defs
     id="defs5"><inkscape:perspective
       sodipodi:type="inkscape:persp3d"
       inkscape:vp_x="0 : 526.18109 : 1"
       inkscape:vp_y="0 : 1000 : 0"
       inkscape:vp_z="744.09448 : 526.18109 : 1"
       inkscape:persp3d-origin="372.04724 : 350.78739 : 1"
       id="perspective9" /><clipPath
       clipPathUnits="userSpaceOnUse"
       id="clipPath25"><path
         d="M 0,841.89 L 595.276,841.89 L 595.276,0 L 0,0 L 0,841.89 z"
         id="path27" /></clipPath><clipPath
       clipPathUnits="userSpaceOnUse"
       id="clipPath67"><path
         d="M 0,841.89 L 595.276,841.89 L 595.276,0 L 0,0 L 0,841.89 z"
         id="path69" /></clipPath></defs><sodipodi:namedview
     inkscape:window-height="480"
     inkscape:window-width="742"
     inkscape:pageshadow="2"
     inkscape:pageopacity="0.0"
     guidetolerance="10.0"
     gridtolerance="10.0"
     objecttolerance="10.0"
     borderopacity="1.0"
     bordercolor="#666666"
     pagecolor="#ffffff"
     id="base"
     showgrid="false"
     inkscape:zoom="1.444581"
     inkscape:cx="194.01219"
     inkscape:cy="100.72126"
     inkscape:window-x="0"
     inkscape:window-y="24"
     inkscape:current-layer="g11" /><g
     id="g11"
     inkscape:groupmode="layer"
     inkscape:label="cenatic"
     transform="matrix(1.25,0,0,-1.25,-70.489875,814.60712)"><g
       id="g71"
       transform="translate(229.0459,566.6855)"><path
         d="M 0,0 C 0,-1.129 -1.09,-4.229 -4.316,-4.229 C -9.141,-4.229 -9.232,1.006 -9.232,3.637 C -9.232,6.633 -8.186,10.639 -4.182,10.639 C -1.23,10.826 -0.227,8.318 0.041,6.727 L 6.502,6.727 C 5.904,14.273 -0.365,16 -4.182,16 C -12.365,16 -15.779,10.412 -15.779,2.602 C -15.779,-2.496 -13.686,-9.457 -4.596,-9.457 C 4.271,-9.457 6.227,-2.496 6.449,0 L 0,0 z"
         style="fill:#231f20;fill-opacity:1;fill-rule:nonzero;stroke:none"
         id="path73" /></g><g
       id="g75"
       transform="translate(254.1699,564.9609)"><path
         d="M 0,0 C -0.507,-1.736 -2.323,-2.639 -4.092,-2.639 C -9.233,-2.639 -9.601,1.457 -9.778,3.277 L 6.812,3.277 L 6.812,4.406 C 6.812,15.455 0.22,17.725 -4.554,17.725 C -15.144,17.725 -16.146,8.41 -16.146,5.506 C -16.146,-4.457 -10.917,-7.732 -4.092,-7.732 C 0.039,-7.732 4.856,-5.824 6.546,0 L 0,0 z M -9.601,7.404 C -9.233,10.588 -7.641,12.498 -4.64,12.498 C -2.602,12.498 -0.099,11.316 0.271,7.404 L -9.601,7.404 z"
         style="fill:#231f20;fill-opacity:1;fill-rule:nonzero;stroke:none"
         id="path77" /></g><g
       id="g79"
       transform="translate(287.0537,574.5938)"><path
         d="M 0,0 C 0,5.322 -3.676,8.092 -8.41,8.092 C -12.993,8.092 -14.816,5.369 -15.678,3.91 L -15.766,3.91 L -15.766,7.455 L -21.856,7.455 L -21.856,-16.719 L -15.506,-16.719 L -15.506,-2.865 C -15.506,0.822 -13.313,2.73 -10.498,2.73 C -6.451,2.73 -6.354,-0.266 -6.354,-2.043 L -6.354,-16.719 L 0,-16.719 L 0,0 z"
         style="fill:#231f20;fill-opacity:1;fill-rule:nonzero;stroke:none"
         id="path81" /></g><g
       id="g83"
       transform="translate(312.5449,575.6816)"><path
         d="M 0,0 C 0,5.959 -6.229,7.004 -9.643,7.004 C -14.597,7.004 -19.73,5.959 -20.458,-1.447 L -14.321,-1.447 C -14.142,-0.041 -13.597,1.91 -10.416,1.91 C -8.78,1.91 -6.229,1.777 -6.229,-0.902 C -6.229,-2.27 -7.46,-2.68 -8.459,-2.813 L -14.182,-3.676 C -18.234,-4.271 -21.231,-6.674 -21.231,-11.406 C -21.231,-16.402 -17.505,-18.453 -13.869,-18.453 C -9.546,-18.453 -7.511,-16.451 -6.047,-14.951 C -5.915,-16.309 -5.819,-16.68 -5.454,-17.807 L 1.401,-17.807 L 1.401,-16.861 C 0.628,-16.584 0,-15.947 0,-13.084 L 0,0 z M -6.229,-9.129 C -6.229,-12.086 -9.095,-13.904 -11.913,-13.904 C -13.138,-13.904 -14.866,-13.225 -14.866,-10.998 C -14.866,-8.359 -12.915,-7.764 -10.552,-7.363 C -7.913,-6.951 -6.866,-6.541 -6.229,-6.037 L -6.229,-9.129 z"
         style="fill:#231f20;fill-opacity:1;fill-rule:nonzero;stroke:none"
         id="path85" /></g><g
       id="g87"
       transform="translate(325.3389,588.6016)"><path
         d="M 0,0 L -6.359,0 L -6.359,-6.553 L -9.631,-6.553 L -9.631,-11.09 L -6.359,-11.09 L -6.359,-25.777 C -6.359,-28.918 -5.361,-31.004 0.139,-31.004 L 0.954,-31.004 C 1.954,-31.004 2.964,-30.963 3.959,-30.91 L 3.959,-26.096 C 3.508,-26.145 3.043,-26.186 2.64,-26.186 C 0.051,-26.186 0,-25.645 0,-24.236 L 0,-11.09 L 3.959,-11.09 L 3.959,-6.553 L 0,-6.553 L 0,0 z"
         style="fill:#231f20;fill-opacity:1;fill-rule:nonzero;stroke:none"
         id="path89" /></g><path
       d="M 333.507,557.875 L 339.876,557.875 L 339.876,582.049 L 333.507,582.049 L 333.507,557.875 z M 339.876,590.828 L 333.507,590.828 L 333.507,584.914 L 339.876,584.914 L 339.876,590.828 z"
       style="fill:#231f20;fill-opacity:1;fill-rule:nonzero;stroke:none"
       id="path91" /><g
       id="g93"
       transform="translate(360.3154,566.6855)"><path
         d="M 0,0 C 0,-1.129 -1.098,-4.229 -4.32,-4.229 C -9.145,-4.229 -9.229,1.006 -9.229,3.637 C -9.229,6.633 -8.184,10.639 -4.182,10.639 C -1.23,10.826 -0.234,8.318 0.049,6.727 L 6.496,6.727 C 5.912,14.273 -0.361,16 -4.182,16 C -12.369,16 -15.773,10.412 -15.773,2.602 C -15.773,-2.496 -13.686,-9.457 -4.59,-9.457 C 4.275,-9.457 6.225,-2.496 6.457,0 L 0,0 z"
         style="fill:#231f20;fill-opacity:1;fill-rule:nonzero;stroke:none"
         id="path95" /></g><g
       id="g97"
       transform="translate(181.1689,526.3887)"><path
         d="M 0,0 C 2.178,2.219 4.158,4.52 5.955,6.881 C 10.813,2.805 16.135,-0.164 21.859,-2 C 19.057,-5.895 15.842,-9.592 12.221,-13.121 C -3.455,-28.279 -22.266,-35.857 -44.205,-35.857 C -66.867,-35.857 -85.965,-28.098 -101.49,-12.566 C -117.014,2.949 -124.777,22.049 -124.777,44.713 C -124.777,68.262 -116.395,87.826 -99.627,103.432 C -83.889,118.006 -65.406,125.285 -44.205,125.297 C -21.969,125.297 -2.982,117.42 12.766,101.678 C 16.398,98.041 19.625,94.221 22.426,90.236 C 16.459,88.512 11.1,85.543 6.428,81.313 C 4.545,83.861 2.439,86.324 0.104,88.709 C -12.199,101.35 -26.957,107.664 -44.205,107.664 C -61.645,107.664 -76.516,101.35 -88.803,88.709 C -100.896,76.344 -106.941,61.678 -106.941,44.713 C -106.941,27.131 -100.797,12.188 -88.496,-0.102 C -76.277,-12.395 -61.512,-18.535 -44.205,-18.535 C -26.957,-18.535 -12.225,-12.363 0,0"
         style="fill:#85ce26;fill-opacity:1;fill-rule:nonzero;stroke:none"
         id="path99" /></g><g
       id="g101"
       transform="translate(150.9404,582.3262)"><path
         d="M 0,0 C -0.387,2.926 -1.363,5.566 -2.951,7.918 C -5.246,11.082 -8.82,12.662 -13.666,12.662 C -20.572,12.662 -25.299,9.234 -27.84,2.383 C -29.18,-1.273 -29.85,-6.111 -29.85,-12.158 C -29.85,-17.91 -29.18,-22.541 -27.84,-26.031 C -25.395,-32.564 -20.787,-35.822 -14.033,-35.822 C -9.234,-35.822 -5.832,-34.525 -3.809,-31.936 C -1.797,-29.352 -0.574,-25.99 -0.143,-21.863 L 20.791,-21.863 C 20.309,-28.107 18.061,-34.004 14.025,-39.557 C 7.604,-48.533 -1.924,-53.01 -14.533,-53.01 C -27.141,-53.01 -36.424,-49.271 -42.365,-41.785 C -48.309,-34.311 -51.289,-24.596 -51.289,-12.662 C -51.289,0.822 -48.002,11.297 -41.434,18.773 C -34.861,26.26 -25.799,29.996 -14.236,29.996 C -4.41,29.996 3.621,27.787 9.854,23.385 C 16.135,18.967 19.848,11.174 21.01,0 L 0,0 z"
         style="fill:#231f20;fill-opacity:1;fill-rule:nonzero;stroke:none"
         id="path103" /></g></g></svg>