<?xml version="1.0" encoding="UTF-8" standalone="no"?>
<!-- Created with Inkscape (http://www.inkscape.org/) -->
<svg
   xmlns:dc="http://purl.org/dc/elements/1.1/"
   xmlns:cc="http://creativecommons.org/ns#"
   xmlns:rdf="http://www.w3.org/1999/02/22-rdf-syntax-ns#"
   xmlns:svg="http://www.w3.org/2000/svg"
   xmlns="http://www.w3.org/2000/svg"
   xmlns:sodipodi="http://sodipodi.sourceforge.net/DTD/sodipodi-0.dtd"
   xmlns:inkscape="http://www.inkscape.org/namespaces/inkscape"
   id="svg2"
   sodipodi:version="0.32"
   inkscape:version="0.46"
   width="288.1311"
   height="66.495972"
   xml:space="preserve"
   sodipodi:docname="grupomost.svg"
   version="1.0"
   inkscape:output_extension="org.inkscape.output.svg.inkscape"><metadata
     id="metadata7"><rdf:RDF><cc:Work
         rdf:about=""><dc:format>image/svg+xml</dc:format><dc:type
           rdf:resource="http://purl.org/dc/dcmitype/StillImage" /></cc:Work></rdf:RDF></metadata><defs
     id="defs5"><inkscape:perspective
       sodipodi:type="inkscape:persp3d"
       inkscape:vp_x="0 : 526.18109 : 1"
       inkscape:vp_y="0 : 1000 : 0"
       inkscape:vp_z="744.09448 : 526.18109 : 1"
       inkscape:persp3d-origin="372.04724 : 350.78739 : 1"
       id="perspective9" /></defs><sodipodi:namedview
     inkscape:window-height="666"
     inkscape:window-width="640"
     inkscape:pageshadow="2"
     inkscape:pageopacity="0.0"
     guidetolerance="10.0"
     gridtolerance="10.0"
     objecttolerance="10.0"
     borderopacity="1.0"
     bordercolor="#666666"
     pagecolor="#ffffff"
     id="base"
     showgrid="false"
     inkscape:zoom="1.8949707"
     inkscape:cx="144.06555"
     inkscape:cy="33.247986"
     inkscape:window-x="0"
     inkscape:window-y="63"
     inkscape:current-layer="g11" /><g
     id="g11"
     inkscape:groupmode="layer"
     inkscape:label="logoGrupoMOST"
     transform="matrix(1.25,0,0,-1.25,-383.0896,403.28064)"><g
       id="g13"
       transform="scale(1,-1)"><path
         d="M 319.24658,-302.06055 C 320.85547,-303.66943 322.73291,-304.74268 324.78613,-305.2793 C 324.69727,-303.8501 324.69727,-302.50879 324.69727,-300.80908 C 322.1958,-300.80908 319.87402,-300.54004 317.72754,-300.27344 C 318.17578,-300.80908 318.71094,-301.5249 319.24658,-302.06055 C 319.24658,-302.06055 319.24658,-302.06055 319.24658,-302.06055 z M 328.18018,-305.63672 C 331.57764,-305.63672 334.52539,-304.4751 336.93652,-302.06055 C 337.38379,-301.5249 337.83105,-301.0791 338.27783,-300.54004 C 335.50781,-300.80908 332.56006,-300.98828 329.43359,-300.98828 C 328.35986,-300.98828 327.37646,-300.98828 326.39502,-300.80908 C 326.39502,-302.50879 326.48438,-304.02783 326.57568,-305.54834 C 327.10938,-305.63672 327.64551,-305.63672 328.18018,-305.63672 C 328.18018,-305.63672 328.18018,-305.63672 328.18018,-305.63672 z M 314.78076,-293.92383 C 311.56348,-294.46094 309.95508,-295.08984 309.95508,-295.8916 C 309.95508,-296.60645 311.56348,-297.14111 314.86963,-297.68115 C 314.78076,-297.14111 314.78076,-296.51807 314.78076,-295.8916 C 314.78076,-294.90723 314.86963,-293.83398 315.13574,-292.76367 C 315.13574,-292.76367 314.78076,-293.92383 314.78076,-293.92383 C 314.78076,-293.92383 314.78076,-293.92383 314.78076,-293.92383 z M 327.37646,-313.146 C 327.8252,-317.97412 328.62842,-320.47949 329.61182,-320.47949 C 330.2373,-320.47949 330.86328,-318.95947 331.39795,-316.09814 C 331.6665,-314.4873 331.93311,-312.69971 332.20313,-310.64355 C 331.48682,-310.73291 330.59473,-310.91113 329.78955,-310.73291 C 328.80811,-310.73291 327.8252,-310.64355 327.02051,-310.55371 C 327.10938,-311.53613 327.19873,-312.34229 327.37646,-313.146 C 327.37646,-313.146 327.37646,-313.146 327.37646,-313.146 z M 339.61816,-298.12695 C 340.42285,-296.60645 340.77832,-294.90723 340.77832,-293.11914 C 340.77832,-290.08008 339.7959,-287.48828 337.83105,-285.16211 C 336.04346,-282.83984 333.7207,-281.40625 330.86328,-280.78125 C 331.30713,-280.87012 331.6665,-280.87012 332.20313,-280.95801 C 331.57764,-274.25488 330.77197,-270.85645 329.61182,-270.85645 C 328.62842,-270.94434 327.8252,-273.4502 327.37646,-278.1875 C 326.57568,-283.01953 326.30615,-288.82813 326.39502,-295.62305 C 326.30615,-296.69727 326.30615,-297.68115 326.39502,-298.5752 C 327.55518,-298.5752 328.71777,-298.5752 329.96875,-298.5752 C 333.54346,-298.5752 336.84717,-298.5752 339.61816,-298.12695 C 339.61816,-298.12695 339.61816,-298.12695 339.61816,-298.12695 z M 344.70996,-293.83398 C 344.79932,-294.46094 344.79932,-295.08984 344.79932,-295.8916 C 344.79932,-296.51807 344.79932,-297.14111 344.70996,-297.68115 C 348.19434,-297.14111 349.89258,-296.60645 349.89258,-295.8916 C 349.89258,-295.08984 348.19434,-294.37207 344.70996,-293.83398 C 344.70996,-293.83398 344.70996,-293.83398 344.70996,-293.83398 z M 345.78418,-299.46729 C 345.24658,-299.55762 344.79932,-299.73584 344.26367,-299.82568 C 343.63721,-302.23926 342.29834,-304.4751 340.42285,-306.44043 C 338.27783,-308.67578 335.86475,-309.93066 333.09668,-310.46484 C 332.73828,-313.23682 332.29199,-315.55957 331.93311,-317.61816 C 331.04053,-320.92676 330.05664,-322.62451 329.16504,-322.62451 C 327.8252,-322.62451 326.84033,-320.03125 325.85791,-314.8457 C 325.50146,-313.32568 325.32275,-311.71631 325.23242,-310.1084 C 322.99902,-309.48242 320.94482,-308.23096 319.24658,-306.44043 C 317.19238,-304.56396 315.94141,-302.32959 315.31641,-299.91553 C 314.6001,-299.82568 313.79639,-299.55762 313.17139,-299.46729 C 308.70605,-298.5752 306.47168,-297.50146 306.47168,-296.07031 C 306.47168,-294.55078 309.33154,-293.38672 315.22705,-292.49316 C 315.31641,-291.68945 315.67529,-290.88477 315.94141,-289.99023 C 315.67529,-290.97461 315.49414,-292.04492 315.49414,-293.11914 C 315.49414,-294.81934 315.854,-296.42822 316.47656,-297.76807 C 318.88916,-298.12695 321.5708,-298.39551 324.60693,-298.5752 C 324.60693,-297.76807 324.60693,-296.96191 324.60693,-296.07031 C 324.60693,-288.74023 324.96582,-282.48242 325.85791,-277.20313 C 326.84033,-272.01953 327.8252,-269.42773 329.16504,-269.42773 C 330.77197,-269.42773 332.0249,-273.27148 333.00635,-281.04688 C 335.95459,-281.67578 338.5459,-283.19336 340.77832,-285.51855 C 342.65381,-287.57813 343.90674,-289.90039 344.44141,-292.58398 C 349.89258,-293.56641 352.57324,-294.72852 352.57324,-296.07031 C 352.48389,-297.50146 350.25,-298.5752 345.78418,-299.46729 C 345.78418,-299.46729 345.78418,-299.46729 345.78418,-299.46729 z"
         style="fill:#4b749a;fill-opacity:1;fill-rule:nonzero;stroke:none"
         id="path15" /><path
         d="M 370.0835,-300.27344 C 371.06592,-301.16602 372.22754,-301.61426 373.65918,-301.61426 C 374.99707,-301.61426 375.98047,-301.5249 376.69531,-301.25635 C 376.69531,-301.25635 378.03564,-304.56396 378.03564,-304.56396 C 376.69531,-305.09961 375.17627,-305.45703 373.39014,-305.45703 C 370.26465,-305.45703 367.6709,-304.56396 365.70508,-302.86621 C 363.65088,-301.16602 362.66797,-298.93066 362.66797,-296.15918 C 362.66797,-293.2998 363.65088,-290.88477 365.88477,-289.09766 C 368.02734,-287.39648 370.61963,-286.59473 373.74609,-286.59473 C 375.4458,-286.59473 377.32031,-286.86133 379.46387,-287.48828 C 379.46387,-287.48828 379.46387,-295.17578 379.46387,-295.17578 C 379.46387,-295.17578 373.92627,-295.17578 373.92627,-295.17578 C 373.92627,-295.17578 373.92627,-290.4375 373.92627,-290.4375 C 373.92627,-290.4375 373.21045,-290.34668 373.21045,-290.34668 C 372.04883,-290.34668 370.97754,-290.7959 370.0835,-291.68945 C 369.01172,-292.76367 368.38672,-294.19336 368.38672,-295.98242 C 368.38672,-297.8584 368.92285,-299.20068 370.0835,-300.27344 C 370.0835,-300.27344 370.0835,-300.27344 370.0835,-300.27344 z"
         style="fill:#4b749a;fill-opacity:1;fill-rule:nonzero;stroke:none"
         id="path17" /><path
         d="M 388.13135,-301.70361 C 388.13135,-301.70361 389.65039,-301.70361 389.65039,-301.70361 C 391.16943,-301.70361 391.88379,-300.89746 391.88379,-299.46729 C 391.88379,-298.93066 391.70459,-298.39551 391.34863,-297.94678 C 390.98926,-297.50146 390.45459,-297.23291 389.73975,-297.23291 C 389.73975,-297.23291 388.13135,-297.23291 388.13135,-297.23291 C 388.13135,-297.23291 388.13135,-301.70361 388.13135,-301.70361 C 388.13135,-301.70361 388.13135,-301.70361 388.13135,-301.70361 z M 382.59229,-305.09961 C 382.59229,-305.09961 382.59229,-286.86133 382.59229,-286.86133 C 382.59229,-286.86133 388.13135,-286.86133 388.13135,-286.86133 C 388.13135,-286.86133 388.13135,-293.74805 388.13135,-293.74805 C 388.13135,-293.74805 389.56006,-293.74805 389.56006,-293.74805 C 389.56006,-293.74805 392.5083,-286.59473 392.5083,-286.59473 C 392.5083,-286.59473 398.4043,-287.12988 398.4043,-287.12988 C 398.4043,-287.12988 394.29443,-294.99805 394.29443,-294.99805 C 396.35205,-295.98242 397.42285,-297.68115 397.42285,-300.27344 C 397.42285,-301.70361 396.79883,-302.95313 395.72607,-303.75879 C 394.5625,-304.65186 392.95703,-305.09961 390.81201,-305.09961 C 390.81201,-305.09961 382.59229,-305.09961 382.59229,-305.09961 C 382.59229,-305.09961 382.59229,-305.09961 382.59229,-305.09961 z"
         style="fill:#4b749a;fill-opacity:1;fill-rule:nonzero;stroke:none"
         id="path19" /><path
         d="M 405.46338,-305.09961 C 405.46338,-305.09961 400.01416,-305.09961 400.01416,-305.09961 C 400.01416,-305.09961 400.01416,-293.92383 400.01416,-293.92383 C 400.01416,-289.00781 402.69434,-286.59473 408.05615,-286.59473 C 410.28857,-286.59473 412.16357,-287.12988 413.50391,-288.29102 C 415.11328,-289.63281 415.91846,-291.51172 415.91846,-294.10352 C 415.91846,-294.10352 415.91846,-305.09961 415.91846,-305.09961 C 415.91846,-305.09961 411.09277,-305.09961 411.09277,-305.09961 C 411.09277,-305.09961 411.09277,-295.62305 411.09277,-295.62305 C 411.09277,-292.13672 410.20117,-290.34668 408.23389,-290.34668 C 407.16162,-290.34668 406.44678,-290.7959 406.00049,-291.7793 C 405.64258,-292.49316 405.46338,-293.83398 405.46338,-295.53418 C 405.46338,-295.53418 405.46338,-305.09961 405.46338,-305.09961 C 405.46338,-305.09961 405.46338,-305.09961 405.46338,-305.09961 z"
         style="fill:#4b749a;fill-opacity:1;fill-rule:nonzero;stroke:none"
         id="path21" /><path
         d="M 428.51367,-299.46729 C 428.51367,-298.5752 428.1582,-297.94678 427.5293,-297.41162 C 426.99609,-296.96191 426.45898,-296.78662 426.0127,-296.69727 C 426.0127,-296.69727 425.20898,-296.60645 425.20898,-296.60645 C 425.20898,-296.60645 425.20898,-293.38672 425.20898,-293.38672 C 425.20898,-293.38672 426.19141,-293.38672 426.19141,-293.38672 C 428.51367,-293.38672 430.30078,-294.10352 431.73047,-295.44531 C 433.07031,-296.69727 433.69727,-298.12695 433.69727,-299.82568 C 433.69727,-303.40137 431.28516,-305.09961 426.37109,-305.09961 C 426.37109,-305.09961 418.86572,-305.09961 418.86572,-305.09961 C 418.86572,-305.09961 418.86572,-286.86133 418.86572,-286.86133 C 418.86572,-286.86133 424.31641,-286.86133 424.31641,-286.86133 C 424.31641,-286.86133 424.31641,-301.70361 424.31641,-301.70361 C 424.31641,-301.70361 425.83301,-301.70361 425.83301,-301.70361 C 427.62012,-301.70361 428.51367,-300.98828 428.51367,-299.46729 C 428.51367,-299.46729 428.51367,-299.46729 428.51367,-299.46729 z"
         style="fill:#4b749a;fill-opacity:1;fill-rule:nonzero;stroke:none"
         id="path23" /><path
         d="M 447.63281,-296.15918 C 447.63281,-292.31543 446.56055,-290.34668 444.32715,-290.34668 C 442.0957,-290.34668 440.93359,-292.31543 440.93359,-296.15918 C 440.93359,-299.82568 442.0957,-301.61426 444.32715,-301.61426 C 446.56055,-301.61426 447.63281,-299.82568 447.63281,-296.15918 C 447.63281,-296.15918 447.63281,-296.15918 447.63281,-296.15918 z M 450.84961,-302.68652 C 449.0625,-304.56396 446.91992,-305.45703 444.32715,-305.45703 C 441.64844,-305.45703 439.59277,-304.56396 437.80469,-302.68652 C 436.10742,-300.89746 435.21484,-298.75293 435.21484,-296.15918 C 435.21484,-293.38672 436.01953,-291.15332 437.62695,-289.36328 C 439.41406,-287.48828 441.55859,-286.59473 444.32715,-286.59473 C 447.00879,-286.59473 449.24219,-287.48828 450.93945,-289.36328 C 452.54688,-291.15332 453.35547,-293.38672 453.35547,-296.15918 C 453.35547,-298.75293 452.54688,-300.89746 450.84961,-302.68652 C 450.84961,-302.68652 450.84961,-302.68652 450.84961,-302.68652 z"
         style="fill:#4b749a;fill-opacity:1;fill-rule:nonzero;stroke:none"
         id="path25" /><path
         d="M 462.10742,-303.40137 C 462.10742,-303.40137 462.10742,-305.72607 462.10742,-305.72607 C 462.10742,-305.72607 458.80078,-305.72607 458.80078,-305.72607 C 458.80078,-305.72607 458.80078,-286.86133 458.80078,-286.86133 C 458.80078,-286.86133 462.19727,-286.86133 462.19727,-286.86133 C 462.19727,-286.86133 462.19727,-298.03809 462.19727,-298.03809 C 462.19727,-299.82568 462.64258,-301.16602 463.44727,-302.15137 C 464.25,-303.04443 465.41406,-303.4917 466.93262,-303.4917 C 469.79102,-303.4917 471.13086,-301.70361 471.13086,-298.03809 C 471.13086,-298.03809 471.13086,-286.86133 471.13086,-286.86133 C 471.13086,-286.86133 474.52539,-286.86133 474.52539,-286.86133 C 474.52539,-286.86133 474.52539,-298.12695 474.52539,-298.12695 C 474.52539,-301.70361 476.13477,-303.4917 479.35254,-303.4917 C 482.12109,-303.4917 483.55078,-301.70361 483.55078,-298.03809 C 483.55078,-298.03809 483.55078,-286.86133 483.55078,-286.86133 C 483.55078,-286.86133 486.85547,-286.86133 486.85547,-286.86133 C 486.85547,-286.86133 486.85547,-299.46729 486.85547,-299.46729 C 486.85547,-301.5249 486.23047,-303.13428 485.24609,-304.29785 C 484.08594,-305.54834 482.56641,-306.17383 480.51172,-306.17383 C 478.18945,-306.17383 476.04492,-305.19043 473.99023,-303.40137 C 472.56055,-305.19043 470.59375,-306.17383 468.00488,-306.17383 C 465.68262,-306.17383 463.7168,-305.19043 462.10742,-303.40137 C 462.10742,-303.40137 462.10742,-303.40137 462.10742,-303.40137 z"
         style="fill:#0f2652;fill-opacity:1;fill-rule:nonzero;stroke:none"
         id="path27" /><path
         d="M 494.18262,-301.34424 C 495.16602,-302.95313 496.68359,-303.75879 498.56055,-303.75879 C 500.52441,-303.75879 502.04492,-302.95313 503.02832,-301.34424 C 503.83301,-300.09375 504.1875,-298.48438 504.1875,-296.51807 C 504.1875,-294.37207 503.83301,-292.67285 503.02832,-291.33398 C 502.13281,-289.63281 500.61328,-288.82813 498.56055,-288.82813 C 496.59375,-288.82813 495.07617,-289.63281 494.09277,-291.33398 C 493.37695,-292.67285 492.93164,-294.37207 492.93164,-296.51807 C 492.93164,-298.48438 493.37695,-300.09375 494.18262,-301.34424 C 494.18262,-301.34424 494.18262,-301.34424 494.18262,-301.34424 z M 491.86035,-289.27539 C 493.55566,-287.30957 495.79004,-286.41406 498.56055,-286.41406 C 501.33008,-286.41406 503.5625,-287.30957 505.26172,-289.27539 C 506.95703,-291.15332 507.85156,-293.56641 507.85156,-296.51807 C 507.85156,-299.46729 506.86816,-301.79248 504.99512,-303.58008 C 503.20703,-305.36865 501.06055,-306.17383 498.56055,-306.17383 C 496.05762,-306.17383 493.91211,-305.36865 492.12598,-303.58008 C 490.25098,-301.79248 489.26855,-299.46729 489.26855,-296.51807 C 489.26855,-293.56641 490.16113,-291.15332 491.86035,-289.27539 C 491.86035,-289.27539 491.86035,-289.27539 491.86035,-289.27539 z"
         style="fill:#0f2652;fill-opacity:1;fill-rule:nonzero;stroke:none"
         id="path29" /><path
         d="M 520.98438,-302.59717 C 520.98438,-302.59717 522.32617,-304.38672 522.32617,-304.38672 C 521.16211,-305.54834 519.64453,-306.17383 517.67871,-306.17383 C 515.98242,-306.17383 514.55273,-305.72607 513.30176,-304.83105 C 512.05078,-303.93945 511.42578,-302.77588 511.42578,-301.25635 C 511.42578,-300.18506 511.87207,-299.11035 512.58789,-298.21436 C 513.12305,-297.68115 514.0166,-296.96191 515.44531,-295.8916 C 517.05469,-294.81934 517.85645,-294.19336 517.94727,-294.01367 C 518.75098,-293.2998 519.19727,-292.40625 519.19727,-291.51172 C 519.19727,-290.61719 518.8418,-289.90039 518.2168,-289.45313 C 517.58984,-289.00781 516.87305,-288.82813 515.98242,-288.82813 C 514.6416,-288.82813 513.30176,-289.45313 511.96094,-290.70703 C 511.96094,-290.70703 510.26367,-288.74023 510.26367,-288.74023 C 510.88867,-288.1123 511.69336,-287.48828 512.85547,-287.03906 C 513.92773,-286.59473 514.99805,-286.41406 516.07031,-286.41406 C 517.85645,-286.41406 519.37598,-286.86133 520.62695,-287.84473 C 521.96777,-288.91797 522.68164,-290.16992 522.68164,-291.68945 C 522.68164,-292.85059 522.32617,-294.01367 521.61035,-294.99805 C 521.07422,-295.80273 520.08984,-296.69727 518.66211,-297.68115 C 518.66211,-297.68115 515.89258,-299.73584 515.89258,-299.73584 C 515.17871,-300.36328 514.81934,-301.0791 514.81934,-301.70361 C 514.81934,-302.4165 515.08789,-303.04443 515.7168,-303.40137 C 516.25098,-303.75879 516.87305,-303.8501 517.58984,-303.8501 C 518.66211,-303.8501 519.82422,-303.4917 520.98438,-302.59717 C 520.98438,-302.59717 520.98438,-302.59717 520.98438,-302.59717 z"
         style="fill:#0f2652;fill-opacity:1;fill-rule:nonzero;stroke:none"
         id="path31" /><path
         d="M 527.59668,-303.75879 C 527.59668,-303.75879 527.59668,-292.40625 527.59668,-292.40625 C 527.59668,-288.38281 529.4707,-286.41406 533.13574,-286.41406 C 534.47559,-286.41406 535.81641,-286.77246 536.97656,-287.57813 C 536.97656,-287.57813 536.17285,-289.45313 536.17285,-289.45313 C 535.37109,-289.09766 534.47559,-288.82813 533.58398,-288.82813 C 532.60059,-288.82813 531.88477,-289.1875 531.52734,-289.99023 C 531.16992,-290.61719 530.99219,-291.68945 530.99219,-293.11914 C 530.99219,-293.11914 530.99219,-303.75879 530.99219,-303.75879 C 530.99219,-303.75879 535.90527,-303.75879 535.90527,-303.75879 C 535.90527,-303.75879 535.90527,-305.72607 535.90527,-305.72607 C 535.90527,-305.72607 530.99219,-305.72607 530.99219,-305.72607 C 530.99219,-305.72607 530.99219,-311.35938 530.99219,-311.35938 C 530.99219,-311.35938 527.59668,-310.19629 527.59668,-310.19629 C 527.59668,-310.19629 527.59668,-305.72607 527.59668,-305.72607 C 527.59668,-305.72607 524.91602,-305.72607 524.91602,-305.72607 C 524.91602,-305.72607 524.91602,-303.75879 524.91602,-303.75879 C 524.91602,-303.75879 527.59668,-303.75879 527.59668,-303.75879 C 527.59668,-303.75879 527.59668,-303.75879 527.59668,-303.75879 z"
         style="fill:#0f2652;fill-opacity:1;fill-rule:nonzero;stroke:none"
         id="path33" /><path
         d="M 366.05713,-281.13477 C 366.05713,-281.13477 366.05713,-271.50879 366.05713,-271.50879 C 366.05713,-271.50879 364.79883,-271.50879 364.79883,-271.50879 C 364.79883,-271.50879 364.79883,-281.13477 364.79883,-281.13477 C 364.79883,-281.13477 366.05713,-281.13477 366.05713,-281.13477 z"
         style="fill:#0f2652;fill-opacity:1;fill-rule:nonzero;stroke:none"
         id="path35" /><path
         d="M 370.05518,-280.07813 C 370.05518,-280.07813 367.12842,-280.07813 367.12842,-280.07813 C 367.12842,-280.07813 367.12842,-281.13477 367.12842,-281.13477 C 367.12842,-281.13477 374.25391,-281.13477 374.25391,-281.13477 C 374.25391,-281.13477 374.25391,-280.07813 374.25391,-280.07813 C 374.25391,-280.07813 371.3125,-280.07813 371.3125,-280.07813 C 371.3125,-280.07813 371.3125,-271.50879 371.3125,-271.50879 C 371.3125,-271.50879 370.05518,-271.50879 370.05518,-271.50879 C 370.05518,-271.50879 370.05518,-280.07813 370.05518,-280.07813 z"
         style="fill:#0f2652;fill-opacity:1;fill-rule:nonzero;stroke:none"
         id="path37" /><path
         d="M 378.1958,-273.02148 C 378.75293,-272.66602 379.55322,-272.39355 380.40967,-272.39355 C 381.68115,-272.39355 382.42383,-273.05078 382.42383,-274.03516 C 382.42383,-274.92188 381.90967,-275.44922 380.60986,-275.93555 C 379.03711,-276.50586 378.06836,-277.33594 378.06836,-278.67773 C 378.06836,-280.17773 379.31104,-281.29102 381.18066,-281.29102 C 382.15283,-281.29102 382.87988,-281.06152 383.29541,-280.81836 C 383.29541,-280.81836 382.95264,-279.80566 382.95264,-279.80566 C 382.65234,-279.99121 382.00928,-280.26367 381.1377,-280.26367 C 379.82422,-280.26367 379.32373,-279.47656 379.32373,-278.81934 C 379.32373,-277.91992 379.90869,-277.47754 381.23828,-276.96289 C 382.8667,-276.32031 383.68066,-275.54883 383.68066,-274.13574 C 383.68066,-272.65039 382.59521,-271.35059 380.32373,-271.35059 C 379.39648,-271.35059 378.38086,-271.63574 377.86768,-271.97852 C 377.86768,-271.97852 378.1958,-273.02148 378.1958,-273.02148 z"
         style="fill:#0f2652;fill-opacity:1;fill-rule:nonzero;stroke:none"
         id="path39" /><path
         d="M 388.26563,-272.29297 C 389.46436,-272.29297 390.36426,-273.42188 390.36426,-274.99121 C 390.36426,-276.16406 389.78076,-277.63477 388.29297,-277.63477 C 386.82324,-277.63477 386.18066,-276.26367 386.18066,-274.94922 C 386.18066,-273.43555 387.03711,-272.29297 388.25293,-272.29297 C 388.25293,-272.29297 388.26563,-272.29297 388.26563,-272.29297 z M 388.22266,-271.35059 C 386.36621,-271.35059 384.90771,-272.7207 384.90771,-274.90625 C 384.90771,-277.2207 386.43652,-278.57813 388.3374,-278.57813 C 390.32227,-278.57813 391.66406,-277.13477 391.66406,-275.03711 C 391.66406,-272.46484 389.87842,-271.35059 388.23682,-271.35059 C 388.23682,-271.35059 388.22266,-271.35059 388.22266,-271.35059 z"
         style="fill:#0f2652;fill-opacity:1;fill-rule:nonzero;stroke:none"
         id="path41" /><path
         d="M 393.25049,-281.64844 C 393.25049,-281.64844 394.50635,-281.64844 394.50635,-281.64844 C 394.50635,-281.64844 394.50635,-271.50879 394.50635,-271.50879 C 394.50635,-271.50879 393.25049,-271.50879 393.25049,-271.50879 C 393.25049,-271.50879 393.25049,-281.64844 393.25049,-281.64844 z"
         style="fill:#0f2652;fill-opacity:1;fill-rule:nonzero;stroke:none"
         id="path43" /><path
         d="M 402.37646,-273.39453 C 402.37646,-272.67969 402.39111,-272.04883 402.43408,-271.50879 C 402.43408,-271.50879 401.31934,-271.50879 401.31934,-271.50879 C 401.31934,-271.50879 401.24805,-272.63672 401.24805,-272.63672 C 401.24805,-272.63672 401.21924,-272.63672 401.21924,-272.63672 C 400.90479,-272.08008 400.16211,-271.35059 398.93555,-271.35059 C 397.84961,-271.35059 396.5498,-271.96484 396.5498,-274.37891 C 396.5498,-274.37891 396.5498,-278.41992 396.5498,-278.41992 C 396.5498,-278.41992 397.80713,-278.41992 397.80713,-278.41992 C 397.80713,-278.41992 397.80713,-274.60645 397.80713,-274.60645 C 397.80713,-273.29199 398.22021,-272.39355 399.34912,-272.39355 C 400.19092,-272.39355 400.77734,-272.97852 401.00635,-273.5498 C 401.07568,-273.7207 401.11914,-273.94922 401.11914,-274.19238 C 401.11914,-274.19238 401.11914,-278.41992 401.11914,-278.41992 C 401.11914,-278.41992 402.37646,-278.41992 402.37646,-278.41992 C 402.37646,-278.41992 402.37646,-273.39453 402.37646,-273.39453 z"
         style="fill:#0f2652;fill-opacity:1;fill-rule:nonzero;stroke:none"
         id="path45" /><path
         d="M 405.97559,-280.07813 C 405.97559,-280.07813 405.97559,-278.41992 405.97559,-278.41992 C 405.97559,-278.41992 407.77539,-278.41992 407.77539,-278.41992 C 407.77539,-278.41992 407.77539,-277.46289 407.77539,-277.46289 C 407.77539,-277.46289 405.97559,-277.46289 405.97559,-277.46289 C 405.97559,-277.46289 405.97559,-273.73438 405.97559,-273.73438 C 405.97559,-272.87891 406.21826,-272.39355 406.91748,-272.39355 C 407.26221,-272.39355 407.46143,-272.42188 407.64697,-272.47949 C 407.64697,-272.47949 407.70361,-271.52148 407.70361,-271.52148 C 407.46143,-271.43652 407.07617,-271.35059 406.59033,-271.35059 C 406.00391,-271.35059 405.53223,-271.5498 405.23291,-271.87891 C 404.89063,-272.26563 404.74756,-272.87891 404.74756,-273.69336 C 404.74756,-273.69336 404.74756,-277.46289 404.74756,-277.46289 C 404.74756,-277.46289 403.67529,-277.46289 403.67529,-277.46289 C 403.67529,-277.46289 403.67529,-278.41992 403.67529,-278.41992 C 403.67529,-278.41992 404.74756,-278.41992 404.74756,-278.41992 C 404.74756,-278.41992 404.74756,-279.69141 404.74756,-279.69141 C 404.74756,-279.69141 405.97559,-280.07813 405.97559,-280.07813 z"
         style="fill:#0f2652;fill-opacity:1;fill-rule:nonzero;stroke:none"
         id="path47" /><path
         d="M 409.18848,-271.50879 C 409.18848,-271.50879 409.18848,-278.41992 409.18848,-278.41992 C 409.18848,-278.41992 410.44531,-278.41992 410.44531,-278.41992 C 410.44531,-278.41992 410.44531,-271.50879 410.44531,-271.50879 C 410.44531,-271.50879 409.18848,-271.50879 409.18848,-271.50879 z M 409.78809,-279.69141 C 409.31738,-279.69141 409.00342,-280.0625 409.00342,-280.50586 C 409.00342,-280.94922 409.33154,-281.30664 409.81689,-281.30664 C 410.30273,-281.30664 410.61719,-280.94922 410.61719,-280.50586 C 410.61719,-280.0625 410.30273,-279.69141 409.80322,-279.69141 C 409.80322,-279.69141 409.78809,-279.69141 409.78809,-279.69141 z"
         style="fill:#0f2652;fill-opacity:1;fill-rule:nonzero;stroke:none"
         id="path49" /><path
         d="M 415.38672,-272.29297 C 416.58789,-272.29297 417.48682,-273.42188 417.48682,-274.99121 C 417.48682,-276.16406 416.90186,-277.63477 415.41504,-277.63477 C 413.94434,-277.63477 413.30176,-276.26367 413.30176,-274.94922 C 413.30176,-273.43555 414.15967,-272.29297 415.37354,-272.29297 C 415.37354,-272.29297 415.38672,-272.29297 415.38672,-272.29297 z M 415.34521,-271.35059 C 413.48828,-271.35059 412.03027,-272.7207 412.03027,-274.90625 C 412.03027,-277.2207 413.55908,-278.57813 415.4585,-278.57813 C 417.44434,-278.57813 418.78711,-277.13477 418.78711,-275.03711 C 418.78711,-272.46484 417.00146,-271.35059 415.35938,-271.35059 C 415.35938,-271.35059 415.34521,-271.35059 415.34521,-271.35059 z"
         style="fill:#0f2652;fill-opacity:1;fill-rule:nonzero;stroke:none"
         id="path51" /><path
         d="M 420.37158,-276.5498 C 420.37158,-277.27734 420.3584,-277.84863 420.31494,-278.41992 C 420.31494,-278.41992 421.4292,-278.41992 421.4292,-278.41992 C 421.4292,-278.41992 421.50195,-277.29102 421.50195,-277.29102 C 421.50195,-277.29102 421.52881,-277.29102 421.52881,-277.29102 C 421.87158,-277.93555 422.67188,-278.57813 423.81445,-278.57813 C 424.77148,-278.57813 426.25586,-278.00586 426.25586,-275.63477 C 426.25586,-275.63477 426.25586,-271.50879 426.25586,-271.50879 C 426.25586,-271.50879 425,-271.50879 425,-271.50879 C 425,-271.50879 425,-275.49219 425,-275.49219 C 425,-276.60547 424.58594,-277.54883 423.39844,-277.54883 C 422.58594,-277.54883 421.94287,-276.96289 421.71436,-276.26367 C 421.65771,-276.10645 421.62793,-275.87891 421.62793,-275.67773 C 421.62793,-275.67773 421.62793,-271.50879 421.62793,-271.50879 C 421.62793,-271.50879 420.37158,-271.50879 420.37158,-271.50879 C 420.37158,-271.50879 420.37158,-276.5498 420.37158,-276.5498 z"
         style="fill:#0f2652;fill-opacity:1;fill-rule:nonzero;stroke:none"
         id="path53" /><path
         d="M 428.125,-272.7793 C 428.51367,-272.55078 429.16895,-272.29297 429.79688,-272.29297 C 430.69727,-272.29297 431.12695,-272.73633 431.12695,-273.32227 C 431.12695,-273.92188 430.77051,-274.25 429.85547,-274.5918 C 428.59863,-275.05078 428.0127,-275.7207 428.0127,-276.5498 C 428.0127,-277.66309 428.92773,-278.57813 430.39844,-278.57813 C 431.09766,-278.57813 431.71289,-278.3916 432.08398,-278.14844 C 432.08398,-278.14844 431.7832,-277.24805 431.7832,-277.24805 C 431.51172,-277.40625 431.0127,-277.64941 430.36914,-277.64941 C 429.62598,-277.64941 429.22656,-277.2207 429.22656,-276.70605 C 429.22656,-276.12109 429.62598,-275.86328 430.52637,-275.52051 C 431.71289,-275.07715 432.33984,-274.47852 432.33984,-273.43555 C 432.33984,-272.20703 431.38379,-271.35059 429.76953,-271.35059 C 429.01172,-271.35059 428.3125,-271.5498 427.82813,-271.83594 C 427.82813,-271.83594 428.125,-272.7793 428.125,-272.7793 z"
         style="fill:#0f2652;fill-opacity:1;fill-rule:nonzero;stroke:none"
         id="path55" /></g></g></svg>