<?xml version="1.0" encoding="iso-8859-1"?>
<!-- Generator: Adobe Illustrator 9.0, SVG Export Plug-In  -->
<!DOCTYPE svg PUBLIC "-//W3C//DTD SVG 20000303 Stylable//EN"   "http://www.w3.org/TR/2000/03/WD-SVG-20000303/DTD/svg-20000303-stylable.dtd" [
	<!ENTITY st0 "fill:#AA001A;">
	<!ENTITY st1 "fill-rule:nonzero;clip-rule:nonzero;fill:#19191C;stroke:#FFFFFF;stroke-width:0;stroke-miterlimit:4;">
	<!ENTITY st2 "fill:#87878B;">
	<!ENTITY st3 "stroke:none;">
]>
<svg  width="113.56445pt" height="127.91895pt" viewBox="0 0 113.56445 127.91895" xml:space="preserve">
	<g id="Layer_x0020_1" style="&st1;">
		<g style="&st3;">
			<path d="M13.84961,116.0332c-0.75537-0.90723-1.09814-1.24902-1.95801-1.78613c-0.86279-0.54004-1.69629-0.77734-2.88867-0.77734c-1.56641,0-2.60938,0.4502-3.71631,1.53125c-1.15869,1.13379-1.6792,2.42383-1.6792,4.19043
				c0,1.76855,0.46094,3.04883,1.62939,4.16797c1.15674,1.10645,2.24268,1.54297,3.85449,1.54297c1.1792,0,1.99414-0.22656,2.90137-0.81641c0.90039-0.58594,1.47852-1.0791,1.98193-1.85547c0,0,0,0,0,3.41016c0,0-0.23242,0.18262-0.35498,0.27246
				c-1.26416,0.91113-2.75342,1.36426-4.46826,1.36426c-2.20215,0-4.30176-0.7041-5.77246-2.19531c-1.53223-1.5625-2.39453-3.54688-2.39453-5.77246c0-2.28027,1.07178-4.31641,2.61035-5.89941c1.53711-1.5791,3.40576-2.37402,5.61572-2.37402
				c1.64502,0,3.10156,0.45605,4.3623,1.35938c0.09326,0.07227,0.27686,0.21582,0.27686,0.21582c0,3.42188,0,3.42188,0,3.42188z"/>
			<path d="M20.19434,126.86035h-2.54736v-15.35352h2.57764v1.61133c0.63135-0.68359,1.4126-1.54102,2.15918-1.86035c0.74854-0.31738,2.15967-0.29883,3.63965,0.47852l-1.25293,2.33398c-1.43408-1.17773-2.69189-0.55566-3.39258,0.07715
				c-0.69727,0.62695-1.10352,1.95801-1.18359,3.42676v9.28613z"/>
			<path d="M42.8291,119.75781H30.66797c0.11182,1.68066,0.39258,2.51758,1.41016,3.55859c1.0166,1.04004,2.10986,1.54883,3.63184,1.54883c1.08105,0,1.85498-0.07129,2.71484-0.67773c0.86182-0.60352,1.58545-1.3457,2.05615-2.43555l2.11182,1.20508
				c-0.78174,1.55469-1.64551,2.26855-2.8374,3.18555c-1.19678,0.92285-2.7583,1.13477-4.33203,1.13477c-2.08398,0-3.89063-0.67285-5.33252-2.2627c-1.44287-1.5918-2.12158-3.63086-2.12158-5.87402c0-2.33301,0.70459-4.26855,2.12158-5.7998
				c1.41113-1.53711,3.21777-2.30469,5.41846-2.30469c2.15918,0,3.91943,0.79492,5.27881,2.38379c1.35791,1.58594,2.04102,3.65039,2.04102,6.19141v0.14648z M40.02979,117.49219c-0.20117-0.88379-0.40771-1.84961-1.33789-2.70801
				c-0.93359-0.86426-1.68359-1.33789-3.17969-1.33789c-1.39307,0-2.354,0.37988-3.24561,1.36914c-0.90332,1.00391-1.13867,1.43945-1.47461,2.71289l9.23779-0.03613z"/>
			<path style="&st0;" d="M58.20703,113.79688V97.3291l2.55078,0.04883v29.48242h-2.64355l0.04492-2.24121c-0.67383,0.86621-1.11523,1.20117-2.09277,1.87305c-0.91992,0.62305-2.04932,0.82617-3.16455,0.82617c-2.16846,0-3.80664-0.68066-5.28809-2.24316
				c-1.48828-1.56641-2.18506-3.62793-2.18506-5.90723c0-2.26172,0.7168-4.3291,2.18506-5.875c1.46436-1.54395,2.79785-2.22754,5.00049-2.22754c1.18457,0,2.54199,0.3291,3.66602,1.02148c0.78809,0.48633,1.15625,0.87695,1.92676,1.70996z M58.32227,119.35156
				c0-1.75684-0.40918-3.11816-1.54688-4.35547c-1.13281-1.24316-2.38672-1.50098-3.72656-1.53613c-1.58691-0.04004-2.64453,0.57031-3.53516,1.53613c-0.89111,0.96484-1.49951,2.68359-1.51221,4.05371c-0.01904,1.79883,0.37695,3.09473,1.51221,4.32129
				c1.13477,1.22461,2.58301,1.53613,3.75244,1.51855c1.10596-0.0127,2.84521-0.48438,3.73193-1.60449c0.94043-1.1875,1.32422-2.87793,1.32422-3.93359z"/>
			<path d="M76.68066,124.7168c-0.6748,0.80273-0.92871,1.02734-1.80566,1.63184c-0.93945,0.6377-1.94531,0.92871-3.11719,0.92871c-2.18457,0-4.06836-0.62012-5.52148-2.16016c-1.4541-1.54199-2.23047-3.5752-2.23047-5.84668
				c0-2.31152,0.85645-4.25586,2.34082-5.80469c1.4873-1.54883,2.76172-2.41992,4.99219-2.40039c1.69434,0.01855,2.94629,0.57031,3.51953,0.99023c0.59375,0.43945,1.20313,0.80371,1.87109,1.57031l0.0166-2.11914h2.57129v15.35352h-2.63672v-2.14355z
				 M76.83203,119.13477c0-1.63574-0.22754-2.83398-1.35742-4.05176c-1.13086-1.21777-2.25781-1.62305-3.7334-1.62305c-1.59766,0-2.52246,0.37207-3.64746,1.58887c-1.125,1.21777-1.43848,2.12598-1.43848,3.93457c0,1.71387,0.38477,3.20117,1.50488,4.38379
				c1.11914,1.18359,2.16309,1.54004,3.7334,1.54004c1.20605,0,2.45605-0.37695,3.58105-1.62207c1.12793-1.24414,1.35742-2.39063,1.35742-4.15039z"/>
			<path d="M84.15625,126.86035V113.8457l-1.75098-0.03418l-0.03516-2.30469h1.78613v-5.53027l2.52051-0.06152v5.5918h2.6875v2.37207l-2.6875,0.03418v12.94727h-2.52051z"/>
			<path d="M106.11816,127.91895l-7.44824-16.41211l2.87891,0.03906l4.56934,10.22949l4.66699-10.26855h2.7793l-7.44629,16.41211z"/>
			<path d="M92.58398,126.86035v-15.35352h2.62305v15.35352h-2.62305z"/>
			<path d="M93.85059,103.72852c-1.03809,0-1.88379,0.84473-1.88379,1.88086c0,1.04199,0.8457,1.8877,1.88379,1.8877c1.03906,0,1.87988-0.8457,1.87988-1.8877c0-1.03613-0.84082-1.88086-1.87988-1.88086z"/>
			<path style="&st2;" d="M55.82324,33.04199l0.00391-0.50977c0,0-0.2666-11.58008-0.2666-15.99902c0-3.15283-0.27246-11.82129-0.42871-16.5332c-0.10156,0-0.2041,0-0.30957,0C41.52734,0,29.64307,4.75977,20.1499,11.84912C8.03027,20.89697,0,34.05566,0,49.33203
				C0,64.9873,8.73438,78.70605,21.48779,87.57422c5.11475,3.55371,10.62158,6.3584,16.64941,8.27734c5.19824,1.65234,10.52832,2.78418,16.44189,2.81543c0.06934-3.14746,0.26855-11.9248,0.64453-20.14648c0.47168-10.24121,0.40039-20.95361,0.40039-20.95361
				l0.00586-0.10889c-6.93359-0.78955-11.98438-5.91943-11.98438-12.27539c0-3.2793,1.52393-6.06201,3.81396-8.23193c2.15625-2.03857,5.0166-3.50977,8.36377-3.90869z"/>
			<path style="&st0;" d="M98.2666,19.94873C89.00293,9.03516,74.93359,1.16309,58.78418,0.125c-0.0791-0.00439-0.16016-0.01025-0.24023-0.01074C58.66113,6.97217,59,29.08838,58.77344,45.51465c-0.23633,17.20215-0.46777,46.05078-0.52441,53.05664
				c13.24902-1.84668,24.56055-7.33398,33.66211-14.8291c4.51465-3.71777,8.0957-8.05078,11.00879-12.68555c4.00586-6.37695,6.52734-13.47461,6.52734-21.65576c0-11.25537-4.12793-21.15576-11.18066-29.45215z M71.31934,32.90771
				c3.52148,0.3418,6.0625,1.7915,8.29199,3.9209c2.27734,2.17969,3.64941,4.83398,4.06445,8.22217c0.81348,6.66309-5.24219,12.30957-11.99316,12.62988c-0.09668-1.51465-0.37012-6.30664-0.41016-12.66309c-0.04395-6.75635,0.02539-11.10889,0.04688-12.10986z"/>
		</g>
	</g>
</svg>
