%!PS-Adobe-3.0 EPSF-3.0
%%Creator: inkscape 0.44.1
%%Pages: 1
%%Orientation: Portrait
%%BoundingBox: 200 524 399 733
%%HiResBoundingBox: 200.84957 524.33071 398.00752 732.81217
%%DocumentMedia: plain 596 842 0 () ()
%%EndComments
%%Page: 1 1
0 842 translate
0.8 -0.8 scale
gsave [1 0 0 1 0 0] concat
gsave
0 0 0 setrgbcolor
newpath
430.37335 166.60645 moveto
429.47677 166.60645 429.30028 167.53839 429.4341 172.04631 curveto
429.52304 175.04196 429.72143 177.74416 429.86458 178.03406 curveto
430.00775 178.32396 430.44011 178.58198 430.80385 178.58197 curveto
431.16756 178.58195 431.46915 175.87977 431.46915 172.59419 curveto
431.46915 167.6814 431.26423 166.60648 430.37335 166.60645 curveto
closepath
459.21632 177.83838 moveto
458.35736 177.83838 458.15962 179.02449 458.15963 184.17836 curveto
458.15966 189.33215 458.3573 190.51833 459.21632 190.51832 curveto
460.0753 190.51833 460.23385 189.33214 460.23384 184.17836 curveto
460.23382 179.02452 460.07524 177.83838 459.21632 177.83838 curveto
closepath
402.11743 177.95579 moveto
401.35853 178.01152 401.2173 179.09753 401.2173 183.787 curveto
401.2173 189.38355 401.33334 189.81386 402.66533 189.81389 curveto
404.00929 189.81387 404.109 189.44852 403.91766 184.02181 curveto
403.74635 179.16236 403.50185 178.19218 402.46966 177.99493 curveto
402.3329 177.9688 402.22585 177.94783 402.11743 177.95579 curveto
closepath
430.4125 179.99083 moveto
429.60303 179.99083 427.69559 181.22331 426.18584 182.76948 curveto
423.40721 185.58724 lineto
430.4125 185.58724 lineto
437.37863 185.58724 lineto
434.6 182.76948 lineto
433.09025 181.2233 431.22193 179.99086 430.4125 179.99083 curveto
closepath
419.49364 186.99611 moveto
419.49364 190.40091 lineto
419.49364 192.91343 419.86537 194.11942 420.90253 195.05806 curveto
422.17921 196.21339 422.31145 197.21753 422.31142 206.05517 curveto
422.31142 215.79994 lineto
430.72558 215.79994 lineto
439.17887 215.79994 lineto
439.17887 205.9769 lineto
439.17886 196.88179 439.28516 196.10738 440.58775 195.41027 curveto
441.73009 194.79891 441.99665 193.95274 441.99663 190.83141 curveto
441.99663 186.99611 lineto
439.17887 186.99611 lineto
436.64881 186.99612 436.40024 187.17594 436.40024 188.75722 curveto
436.40025 189.85046 435.96041 190.51833 435.30445 190.51832 curveto
434.71877 190.51833 434.24775 189.89031 434.24778 189.10945 curveto
434.24777 187.89382 433.80196 187.70057 430.80385 187.70057 curveto
427.95448 187.70054 427.21782 187.9541 426.85114 189.10945 curveto
426.20631 191.14115 424.42475 190.88106 424.42474 188.75722 curveto
424.42475 187.21778 424.11447 186.99611 421.95919 186.99611 curveto
419.49364 186.99611 lineto
closepath
458.90322 191.22277 moveto
457.81731 191.22279 451.81968 196.68771 451.81968 197.68015 curveto
451.81968 197.98622 455.193 198.2672 459.33371 198.26718 curveto
466.8869 198.26718 lineto
463.44296 194.74498 lineto
461.53932 192.81233 459.48293 191.22274 458.90322 191.22277 curveto
closepath
402.66533 191.30104 moveto
401.35642 191.25197 400.03474 192.1335 398.28215 193.84485 curveto
396.81632 195.27619 395.62091 196.66761 395.62092 196.97571 curveto
395.62092 197.28376 398.76081 197.52362 402.6262 197.52361 curveto
406.49157 197.52361 409.6315 197.41777 409.63148 197.28878 curveto
409.63148 197.15984 408.41789 195.76838 406.93112 194.15794 curveto
405.2317 192.31715 403.97422 191.35011 402.66533 191.30104 curveto
closepath
393.78154 198.93248 moveto
391.80817 198.93248 391.38313 199.22474 391.31601 200.53705 curveto
391.15581 203.6671 391.53398 204.91043 393.23365 206.48565 curveto
394.74682 207.88807 394.93324 208.49972 394.52512 211.22107 curveto
394.26887 212.92996 394.30097 214.66949 394.56427 215.0955 curveto
394.88046 215.60709 397.79475 215.77387 403.21324 215.64339 curveto
411.43171 215.44772 lineto
411.62739 211.49501 lineto
411.77737 208.64417 412.20488 207.18405 413.19282 206.28998 curveto
414.15351 205.42055 414.56255 204.12191 414.56256 201.98506 curveto
414.56256 198.93248 lineto
411.8622 198.93248 lineto
409.72406 198.93248 409.01936 199.24018 408.73136 200.34137 curveto
408.52921 201.11443 408.0162 201.75024 407.55729 201.75024 curveto
407.09837 201.75024 406.58541 201.11444 406.38321 200.34137 curveto
406.0805 199.18376 405.38515 198.93252 402.6262 198.93248 curveto
399.86722 198.93248 399.21103 199.18376 398.90832 200.34137 curveto
398.70613 201.11443 398.19317 201.75024 397.73425 201.75024 curveto
397.27533 201.75024 396.72321 201.11444 396.52104 200.34137 curveto
396.24484 199.28514 395.5683 198.93252 393.78154 198.93248 curveto
closepath
430.80385 199.32384 moveto
431.72552 199.0421 432.12479 201.27992 432.13446 206.48565 curveto
432.14296 211.07041 431.91769 212.27775 431.11692 212.27772 curveto
430.55993 212.27771 429.9337 212.01665 429.70804 211.65155 curveto
428.89727 210.3397 429.21189 201.01938 430.0994 199.95 curveto
430.3703 199.6236 430.59117 199.38887 430.80385 199.32384 curveto
closepath
450.41079 199.67607 moveto
448.86466 199.67607 447.59756 199.8949 447.55389 200.18482 curveto
447.03969 203.59824 447.30369 205.56053 448.49314 207.07269 curveto
449.98599 208.97055 450.28984 210.05438 450.37166 213.53008 curveto
450.41079 215.79994 lineto
458.86409 215.79994 lineto
467.31738 215.79994 lineto
467.31738 212.2386 lineto
467.31737 209.54432 467.64504 208.38205 468.68713 207.50319 curveto
470.19683 206.2299 470.92737 203.36619 470.33082 201.08493 curveto
470.04228 199.98159 469.36275 199.67608 467.55221 199.67607 curveto
465.90712 199.67607 465.16491 199.96424 465.16492 200.69359 curveto
465.16492 201.27925 464.53692 201.75024 463.75604 201.75024 curveto
462.97515 201.75024 462.38631 201.27925 462.38629 200.69359 curveto
462.38631 199.90016 461.53051 199.67608 458.94236 199.67607 curveto
456.53399 199.67607 455.3512 199.95528 455.06794 200.69359 curveto
454.84544 201.2734 454.37079 201.75024 453.97215 201.75024 curveto
453.57345 201.75024 453.22859 201.2734 453.22856 200.69359 curveto
453.22856 199.93223 452.44109 199.67608 450.41079 199.67607 curveto
closepath
437.33949 217.20883 moveto
435.81883 217.26877 435.65668 217.6305 435.65666 219.32215 curveto
435.65665 220.72773 435.30278 221.43546 434.6 221.43547 curveto
433.89239 221.43549 433.54331 220.72819 433.54334 219.28301 curveto
433.54333 217.27744 433.40122 217.16024 431.27348 217.36535 curveto
429.37026 217.54888 428.95408 217.90743 428.76879 219.51782 curveto
428.64649 220.5808 428.12316 221.43546 427.59473 221.43547 curveto
427.06627 221.43549 426.50385 220.58081 426.38152 219.51782 curveto
426.19622 217.90741 425.81917 217.54889 423.91597 217.36535 curveto
421.7882 217.16021 421.60696 217.27745 421.60698 219.28301 curveto
421.60698 222.04658 419.69065 222.25047 419.37625 219.51782 curveto
419.18876 217.88835 418.80574 217.56105 417.02812 217.56105 curveto
414.91479 217.56105 lineto
414.7191 232.74565 lineto
414.55862 245.63328 414.71334 248.07856 415.61922 248.83039 curveto
416.48665 249.55032 416.71505 251.68454 416.71502 260.17972 curveto
416.71502 265.38477 lineto
418.30547 265.15314 419.93992 264.95344 421.60698 264.79775 curveto
421.60698 258.02726 lineto
421.60698 245.42559 lineto
425.87276 240.10316 lineto
428.22334 237.1812 430.36449 234.78073 430.64731 234.78072 curveto
431.46815 234.78072 434.5702 238.30392 437.69172 242.80352 curveto
440.58775 246.99103 lineto
440.58775 258.80999 lineto
440.58775 264.75861 lineto
442.02962 264.88697 443.42809 265.00376 444.8144 265.18909 curveto
444.97094 260.41455 lineto
445.2578 251.96431 445.49024 250.04688 446.45809 249.33916 curveto
447.49848 248.57841 447.60537 246.80771 447.43649 233.05874 curveto
447.27995 217.56105 lineto
445.16663 217.56105 lineto
443.37803 217.56102 443.01053 217.88207 442.81848 219.55696 curveto
442.53723 222.00965 441.04939 221.66466 440.74429 219.08733 curveto
440.55155 217.4591 440.17466 217.20883 438.08308 217.20883 curveto
437.80649 217.20883 437.55673 217.20025 437.33949 217.20883 curveto
closepath
394.56427 217.56105 moveto
394.52512 231.64986 lineto
394.508 239.38058 394.74261 246.25717 395.07302 246.95189 curveto
395.60508 248.07043 396.43713 248.18746 402.15657 247.89116 curveto
405.70867 247.70715 409.34112 247.48817 410.21851 247.46065 curveto
411.78395 247.42153 lineto
411.62739 232.51084 lineto
411.43171 217.56105 lineto
402.97841 217.56105 lineto
394.56427 217.56105 lineto
closepath
450.76301 217.56105 moveto
450.56733 232.86307 lineto
450.41079 248.12595 lineto
458.86409 248.12595 lineto
467.31738 248.12595 lineto
467.12171 232.86307 lineto
466.92603 217.56105 lineto
458.86409 217.56105 lineto
450.76301 217.56105 lineto
closepath
403.13497 225.81866 moveto
403.35179 225.7909 403.56207 226.13774 403.95681 226.87531 curveto
404.39168 227.68784 404.73954 230.76047 404.73952 233.68492 curveto
404.73951 238.88804 404.69769 239.00734 402.97841 239.00737 curveto
401.26356 239.00735 401.23216 238.89277 401.25645 233.91973 curveto
401.27059 231.02279 401.69959 228.07624 402.23484 227.11014 curveto
402.70485 226.26175 402.91813 225.84645 403.13497 225.81866 curveto
closepath
458.59014 227.11014 moveto
459.62715 226.75144 460.47127 231.19629 459.88162 235.91564 curveto
459.56374 238.46011 459.08432 239.71179 458.43359 239.71181 curveto
457.69197 239.71181 457.45519 238.47965 457.45521 234.50676 curveto
457.45521 231.63935 457.65105 228.77824 457.8857 228.16679 curveto
458.13508 227.51691 458.35082 227.19291 458.59014 227.11014 curveto
closepath
399.57363 250.04362 moveto
396.23189 250.08993 393.88078 250.28504 393.58587 250.5915 curveto
392.86889 251.33661 392.58827 256.32134 392.72489 265.18909 curveto
392.80316 273.33235 lineto
398.04732 270.62895 lineto
402.43405 268.5492 407.88358 266.86891 414.09293 265.77613 curveto
414.14373 264.12772 414.19532 263.31555 414.24947 260.92331 curveto
414.49643 250.01289 414.68627 250.23753 403.1741 250.04362 curveto
401.87032 250.02162 400.68755 250.02816 399.57363 250.04362 curveto
closepath
453.61992 250.3567 moveto
447.60073 250.5008 447.63219 252.20377 447.63216 261.39295 curveto
447.63216 262.96129 447.66617 264.36271 447.71043 265.65873 curveto
454.23564 266.74709 456.30026 267.04206 462.85105 269.3104 curveto
468.1862 271.15779 469.26284 272.06712 469.26284 272.06712 curveto
469.39157 261.58862 lineto
469.39156 254.13432 469.22578 252.34173 468.29577 251.5699 curveto
467.53595 250.9393 464.4288 250.59235 458.82495 250.43497 curveto
456.71744 250.37577 455.00897 250.32344 453.61992 250.3567 curveto
closepath
fill
grestore
gsave
0 0 0 setrgbcolor
newpath
328.08858 136.34697 moveto
325.61724 136.55424 323.12356 136.66003 320.69194 136.97313 curveto
321.78775 137.12968 lineto
323.57506 136.47555 326.19242 136.77767 328.08858 136.34697 curveto
closepath
fill
grestore
gsave
0 0 0 setrgbcolor
newpath
317.24801 137.48189 moveto
313.22912 137.72589 307.66063 139.816 309.38174 137.91239 curveto
302.82681 140.83469 291.18092 144.90186 284.64804 151.02283 curveto
284.45237 149.6922 lineto
281.45881 153.28336 271.40007 160.42152 270.59835 165.0725 curveto
269.7765 165.22906 lineto
268.21867 167.86474 267.25516 170.85285 266.01948 173.56493 curveto
264.49144 176.16679 263.55923 175.65168 263.31912 175.44345 curveto
263.32542 175.45489 263.31076 175.46688 263.31912 175.48258 curveto
259.31201 183.60123 257.32906 190.39495 255.60941 195.98966 curveto
256.83478 197.81976 255.61566 207.0306 256.07905 214.3834 curveto
254.71474 239.00348 266.95139 263.08151 284.33495 278.60497 curveto
286.12808 281.07259 287.95179 283.3564 289.89221 284.86665 curveto
312.89485 305.88646 357.41739 310.23141 386.98768 289.05416 curveto
387.34301 288.85855 387.72089 288.63541 388.0835 288.42799 curveto
388.0869 288.43801 388.08009 288.45709 388.0835 288.46714 curveto
388.18799 288.38922 388.29202 288.30974 388.39657 288.23232 curveto
388.67977 288.06775 388.93788 287.89512 389.21843 287.72357 curveto
389.20734 287.68989 389.22938 287.67903 389.21843 287.64528 curveto
394.04059 284.14367 398.81158 281.31125 402.13318 281.81409 curveto
405.38142 279.30939 lineto
406.65799 279.18309 407.84692 278.92769 409.13845 278.95718 curveto
408.70797 278.0962 lineto
422.80974 274.39942 411.47885 281.9816 426.78863 279.19199 curveto
426.09768 278.62981 425.32634 278.05348 423.26641 277.90052 curveto
424.25771 277.10004 428.53101 276.71326 432.26761 277.07868 curveto
432.6981 275.70892 lineto
435.35294 275.54855 436.38827 276.25187 437.55091 276.56991 curveto
432.78395 273.91655 447.20644 275.7288 448.86112 275.66978 curveto
448.15666 277.00039 lineto
449.69313 275.90408 452.53124 275.78532 456.84478 276.29595 curveto
457.97972 278.33101 lineto
460.04929 278.13329 464.71717 279.23921 465.96338 280.91396 curveto
466.70695 278.7615 lineto
470.89636 282.29497 469.96703 279.71072 475.31679 283.92742 curveto
472.6947 284.08396 lineto
476.84358 285.33556 479.46099 284.86005 483.77008 287.60616 curveto
489.08216 291.82924 488.76126 293.0287 493.86708 297.58573 curveto
490.75111 292.95792 487.34009 287.36027 483.65268 284.4753 curveto
470.74368 272.61899 451.0378 266.05806 430.97613 266.31637 curveto
415.37266 266.51732 399.55676 270.85984 386.59634 280.09212 curveto
386.50931 280.13973 386.40972 280.16111 386.32239 280.20951 curveto
386.29881 280.17553 386.2677 280.16581 386.24412 280.13125 curveto
385.95339 280.35343 385.63562 280.53856 385.34399 280.75742 curveto
384.27376 281.37649 383.23304 282.06827 382.17401 282.75334 curveto
382.26696 282.79383 382.35613 282.82864 382.44796 282.87073 curveto
378.30382 285.72127 374.33327 287.80023 371.45084 287.37134 curveto
368.2026 289.87602 lineto
366.92638 290.00556 365.73719 290.25447 364.44557 290.22824 curveto
364.87606 291.05008 lineto
350.7837 294.78253 362.09806 287.20421 346.7954 290.03256 curveto
347.48775 290.59299 348.25731 291.13715 350.31761 291.28489 curveto
349.32833 292.08788 345.05394 292.54098 341.31641 292.18502 curveto
340.92506 293.55477 lineto
338.27063 293.72184 337.15742 293.00888 335.99398 292.69379 curveto
340.76768 295.33512 326.37741 293.53068 324.72292 293.5939 curveto
325.42736 292.30243 lineto
323.89367 293.40261 321.01494 293.46746 316.70011 292.96773 curveto
315.60432 290.97183 lineto
314.44377 291.08562 312.45222 290.80048 310.71236 290.22824 curveto
308.81263 288.63621 307.64189 286.90749 305.46818 285.02321 curveto
306.75966 287.29307 lineto
300.33711 285.02341 303.02273 284.48532 297.7976 282.83161 curveto
299.2065 281.03137 lineto
297.12498 280.87261 293.64849 277.56403 292.70997 275.70892 curveto
290.44011 275.74807 lineto
287.70398 272.37448 286.2641 269.96197 286.37 268.07748 curveto
285.62642 269.4081 lineto
284.79234 267.97785 275.55341 256.7381 280.34312 259.35023 curveto
279.45313 258.53736 278.29933 258.00141 277.01659 255.67149 curveto
277.95584 254.61482 lineto
275.65073 251.65132 273.73863 247.81853 273.88575 246.55287 curveto
275.11553 248.21247 275.93741 248.53905 276.78178 248.82275 curveto
270.96088 234.39055 270.66302 248.00341 266.2543 234.10775 curveto
267.15441 234.0295 lineto
266.43949 232.95347 266.04677 231.81041 265.47159 230.66382 curveto
265.8238 226.63286 lineto
261.63575 221.79813 264.71043 206.03464 265.31504 197.39856 curveto
265.73429 193.88679 268.76522 190.15036 271.10712 184.2881 curveto
269.73737 184.05329 lineto
272.46466 179.29941 285.27395 164.92162 291.22282 165.65954 curveto
294.10458 162.04195 290.65131 165.67081 290.08789 164.75943 curveto
296.41779 158.21366 298.41767 160.14479 302.68955 158.96736 curveto
307.29686 156.23466 298.74397 160.01864 300.92846 157.91069 curveto
308.89267 155.8777 306.5841 153.30708 316.97406 152.27516 curveto
318.06998 152.89843 314.40451 153.22778 313.49099 154.03627 curveto
320.12687 150.79201 334.49325 151.5295 343.8211 155.8365 curveto
354.64794 160.89173 366.82291 175.82421 367.30248 189.8845 curveto
367.81125 190.04105 lineto
367.53615 195.62986 368.71694 202.10621 366.75458 208.04343 curveto
368.08518 205.22566 lineto
368.2426 209.49739 366.81234 211.53619 365.54137 215.20525 curveto
363.27151 216.37932 lineto
361.40327 220.0072 363.43754 218.65967 362.09743 221.54522 curveto
359.17888 224.13827 353.27339 229.68853 351.37428 230.1942 curveto
349.98417 230.16332 352.28297 228.55346 352.58749 227.92432 curveto
348.68043 230.60553 349.44426 231.93115 343.46888 233.55987 curveto
343.31233 233.20764 lineto
328.574 240.13561 308.09502 226.38539 308.36422 207.65208 curveto
308.20682 208.84127 307.90808 208.54116 307.58152 209.02181 curveto
306.82101 199.38322 312.05316 189.68888 320.84848 185.73612 curveto
329.45262 181.48058 339.49683 183.24562 345.66046 188.98437 curveto
342.2756 184.55388 335.56461 179.85675 327.57982 180.29627 curveto
319.7583 180.41974 312.44985 185.39276 310.00791 190.78461 curveto
306.00083 193.30564 305.53148 200.50377 303.78536 201.82088 curveto
301.43462 219.07393 308.18472 226.51344 319.63529 235.28183 curveto
320.63127 235.95345 320.68835 236.31071 320.57454 236.65157 curveto
320.5814 236.61078 320.58076 236.60022 320.61367 236.5733 curveto
334.11931 241.6153 348.06337 240.37828 359.7493 231.01604 curveto
362.72375 228.7023 365.97258 224.76961 366.91112 224.71521 curveto
365.67415 226.5738 366.82691 225.95122 366.40235 227.02421 curveto
368.58365 223.15111 365.00627 225.34699 369.14185 219.35362 curveto
370.7464 221.54522 lineto
370.14917 217.58072 375.69152 212.78511 375.1296 206.51714 curveto
376.39762 204.60031 376.51326 208.56461 375.16872 212.97452 curveto
377.03403 208.08245 375.70816 207.30543 376.18626 203.2689 curveto
376.70407 204.62568 377.36391 206.06379 377.71256 207.49553 curveto
376.496 202.76811 378.94144 199.55889 379.55192 196.81151 curveto
378.95028 196.54543 377.68926 198.87372 377.39947 193.2893 curveto
377.44067 190.86386 378.05685 192.04673 378.29958 191.44993 curveto
377.82297 191.17652 376.59457 189.30228 375.83403 185.73612 curveto
376.38423 184.89825 377.27688 187.92167 378.02564 188.04513 curveto
377.54459 185.20954 376.73033 183.01974 376.69502 180.84417 curveto
374.50318 176.26665 375.89055 181.46278 374.11207 178.8874 curveto
371.78048 171.61545 376.09361 177.22164 376.38195 173.91715 curveto
379.91979 179.03709 381.91257 186.94987 382.83931 190.23673 curveto
382.13176 186.2296 380.98708 182.36922 379.59106 178.61345 curveto
380.66784 179.06472 377.87251 170.34941 380.99994 176.10877 curveto
377.65922 163.83156 366.69507 152.3749 356.61844 146.99186 curveto
357.84973 148.11931 359.44731 149.50939 358.88831 149.73134 curveto
353.87796 146.75025 354.71422 146.56879 353.99635 145.30902 curveto
349.9157 143.64941 349.65571 145.43985 346.95194 145.30902 curveto
339.2584 141.23132 337.79077 141.60213 330.71066 139.04731 curveto
331.06289 140.61274 lineto
325.96575 138.91642 325.06459 141.2507 319.55702 140.61274 curveto
319.2216 140.3511 321.34927 139.6509 323.07921 139.39954 curveto
318.15121 140.04926 318.39134 138.40656 313.56925 139.55608 curveto
314.75789 138.72259 315.97998 138.19041 317.24801 137.48189 curveto
closepath
fill
grestore
gsave
0 0 0 setrgbcolor
newpath
323.07921 139.39954 moveto
324.01848 139.28214 lineto
324.05761 139.20387 lineto
323.07921 139.39954 lineto
closepath
fill
grestore
gsave
0 0 0 setrgbcolor
newpath
324.05761 139.20387 moveto
325.60073 138.86577 325.95305 138.55492 321.23983 138.42116 curveto
322.65058 138.674 324.29003 138.86723 324.05761 139.20387 curveto
closepath
fill
grestore
gsave
0 0 0 setrgbcolor
newpath
320.57454 236.65157 moveto
320.48261 236.92692 320.26976 237.21681 320.37885 237.62996 curveto
316.57476 235.84983 313.10685 233.13177 310.24275 229.84197 curveto
311.7623 232.06309 313.40627 234.21166 315.52605 235.908 curveto
311.93966 234.6938 307.14109 227.25022 305.74214 226.94594 curveto
311.92492 238.00897 330.82927 246.34533 340.72939 242.20883 curveto
336.14859 242.3779 330.33823 242.30926 325.19255 240.40859 curveto
323.16527 239.36812 320.47144 237.26359 320.57454 236.65157 curveto
closepath
fill
grestore
gsave
0 0 0 setrgbcolor
newpath
259.05335 170.70803 moveto
259.31003 174.34355 256.23746 175.7117 259.75778 173.25184 curveto
261.5644 169.18511 259.31761 171.68132 259.05335 170.70803 curveto
closepath
fill
grestore
gsave
0 0 0 setrgbcolor
newpath
449.06275 164.69257 moveto
446.75376 167.11899 lineto
444.4056 169.50626 lineto
445.9319 171.61958 lineto
446.75226 172.77172 447.37992 173.89066 447.37992 174.12426 curveto
447.37992 174.35789 445.7305 174.37198 443.70117 174.16341 curveto
441.67184 173.95487 438.43289 174.06828 436.50021 174.39821 curveto
432.31905 175.11205 431.85512 174.97658 432.23444 172.95019 curveto
432.39359 172.10001 432.55795 170.21931 432.58665 168.80182 curveto
432.63762 166.28574 432.72273 166.21829 436.18713 165.4753 curveto
438.13885 165.05676 441.83635 164.69257 444.4056 164.69257 curveto
449.06275 164.69257 lineto
closepath
fill
grestore
gsave
0 0 0 setrgbcolor
newpath
419.65832 175.4839 moveto
422.09807 175.59022 421.82753 176.36096 419.26698 178.18428 curveto
416.70083 180.01156 416.67368 180.97319 418.9539 183.11537 curveto
419.91871 184.0218 420.55454 184.91953 420.36278 185.11129 curveto
420.17099 185.30307 418.00406 185.43264 415.58823 185.38524 curveto
413.17239 185.33782 409.77448 185.57283 408.03505 185.894 curveto
406.29563 186.21517 404.80518 186.51092 404.70853 186.5593 curveto
404.61187 186.60772 404.51285 184.60361 404.51285 182.13698 curveto
404.51285 177.67551 lineto
407.87851 176.81453 lineto
409.71456 176.34851 413.52938 175.77763 416.33181 175.56219 curveto
417.75308 175.45293 418.84509 175.44847 419.65832 175.4839 curveto
closepath
fill
grestore
gsave
0 0 0 setrgbcolor
newpath
477.26464 175.1277 moveto
479.80888 175.21635 479.47801 176.06389 476.56018 177.86719 curveto
473.62737 179.6798 473.54255 180.34303 475.89488 182.79828 curveto
477.69512 184.6768 lineto
471.86392 185.06815 lineto
462.95366 185.71881 461.65005 186.11612 461.21903 188.27726 curveto
461.07085 183.71703 461.21173 182.04115 461.68865 178.37596 curveto
461.96095 179.41792 462.01092 179.42551 462.08001 178.45423 curveto
462.18019 177.04549 466.39821 175.90504 473.74242 175.28424 curveto
475.23551 175.15807 476.41655 175.09813 477.26464 175.1277 curveto
closepath
fill
grestore
gsave
0 0 0 setrgbcolor
newpath
256.11816 182.60528 moveto
253.82924 185.52904 255.06795 186.09538 254.8267 188.08427 curveto
255.6549 185.54415 255.80188 184.07524 256.11816 182.60528 curveto
closepath
fill
grestore
gsave
0 0 0 setrgbcolor
newpath
350.31761 200.25544 moveto
349.99049 200.2637 349.55032 201.0697 349.33922 201.9774 curveto
349.83204 202.2332 350.23235 205.3408 350.70896 203.42543 curveto
350.86931 201.04701 350.64473 200.24718 350.31761 200.25544 curveto
closepath
fill
grestore
gsave
0 0 0 setrgbcolor
newpath
379.19971 208.23912 moveto
378.80835 209.2175 lineto
378.39949 212.11948 377.7578 214.99351 376.81243 217.78822 curveto
377.93639 214.68206 378.77499 211.4931 379.19971 208.23912 curveto
closepath
fill
grestore
gsave
0 0 0 setrgbcolor
newpath
348.59565 210.00021 moveto
348.2426 211.75242 347.30284 213.29578 346.40405 214.89217 curveto
341.4643 218.00118 345.94214 213.0573 346.40405 211.17427 curveto
341.0936 217.85823 345.65602 215.17776 345.46479 217.04463 curveto
347.04029 214.87348 348.19259 212.458 348.59565 210.00021 curveto
closepath
fill
grestore
gsave
0 0 0 setrgbcolor
newpath
337.83336 220.21462 moveto
335.68417 220.73939 333.50132 220.76821 331.2977 220.56683 curveto
328.65424 220.60359 331.76021 221.95381 335.21126 222.48448 curveto
336.16597 221.7392 337.06254 220.94667 337.83336 220.21462 curveto
closepath
fill
grestore
gsave
0 0 0 setrgbcolor
newpath
304.45066 220.56683 moveto
305.03321 222.7086 306.23608 224.56591 307.3467 226.43717 curveto
306.52485 224.0499 lineto
305.60544 223.03269 305.05968 221.78397 304.45066 220.56683 curveto
closepath
fill
grestore
gsave
0 0 0 setrgbcolor
newpath
302.41561 224.20644 moveto
302.06338 226.04582 lineto
303.80071 228.4022 305.1675 230.97293 307.38583 232.81627 curveto
305.78977 229.70432 304.59717 228.41497 302.41561 224.20644 curveto
closepath
fill
grestore
gsave
0 0 0 setrgbcolor
newpath
430.74131 237.62996 moveto
429.58458 237.78319 428.37692 239.68098 425.8885 243.50031 curveto
423.03159 247.8835 lineto
423.03159 259.27196 lineto
423.03159 264.67268 lineto
425.72391 264.4595 428.48796 264.32045 431.32834 264.32045 curveto
434.02157 264.32048 436.6334 264.44141 439.19461 264.63355 curveto
439.19461 259.19369 lineto
439.15548 247.76609 lineto
435.24191 242.2871 lineto
432.97936 239.09698 431.89808 237.47677 430.74131 237.62996 curveto
closepath
fill
grestore
gsave
0 0 0 setrgbcolor
newpath
338.93909 361.47821 moveto
346.31409 361.47821 lineto
346.31409 362.80634 lineto
340.51721 362.80634 lineto
340.51721 366.25946 lineto
346.0719 366.25946 lineto
346.0719 367.58759 lineto
340.51721 367.58759 lineto
340.51721 371.81415 lineto
346.45471 371.81415 lineto
346.45471 373.14227 lineto
338.93909 373.14227 lineto
338.93909 361.47821 lineto
354.7594 365.7204 moveto
354.7594 360.98602 lineto
356.1969 360.98602 lineto
356.1969 373.14227 lineto
354.7594 373.14227 lineto
354.7594 371.82977 lineto
354.45731 372.35061 354.0745 372.73863 353.61096 372.99384 curveto
353.15262 373.24384 352.60054 373.36884 351.95471 373.36884 curveto
350.89742 373.36884 350.03544 372.94696 349.36877 372.10321 curveto
348.70731 371.25946 348.37659 370.15009 348.37659 368.77509 curveto
348.37659 367.40009 348.70731 366.29072 349.36877 365.44696 curveto
350.03544 364.60322 350.89742 364.18134 351.95471 364.18134 curveto
352.60054 364.18134 353.15262 364.30895 353.61096 364.56415 curveto
354.0745 364.81416 354.45731 365.19957 354.7594 365.7204 curveto
349.86096 368.77509 moveto
349.86096 369.83238 350.07711 370.66311 350.5094 371.26727 curveto
350.9469 371.86623 351.54585 372.16571 352.30627 372.16571 curveto
353.06669 372.16571 353.66564 371.86623 354.10315 371.26727 curveto
354.54064 370.66311 354.75939 369.83238 354.7594 368.77509 curveto
354.75939 367.7178 354.54064 366.88968 354.10315 366.29071 curveto
353.66564 365.68655 353.06669 365.38447 352.30627 365.38446 curveto
351.54585 365.38447 350.9469 365.68655 350.5094 366.29071 curveto
350.07711 366.88968 349.86096 367.7178 349.86096 368.77509 curveto
359.15784 364.39227 moveto
360.59534 364.39227 lineto
360.59534 373.14227 lineto
359.15784 373.14227 lineto
359.15784 364.39227 lineto
359.15784 360.98602 moveto
360.59534 360.98602 lineto
360.59534 362.80634 lineto
359.15784 362.80634 lineto
359.15784 360.98602 lineto
370.86877 367.86102 moveto
370.86877 373.14227 lineto
369.43127 373.14227 lineto
369.43127 367.9079 lineto
369.43127 367.07978 369.26981 366.45999 368.9469 366.04852 curveto
368.62398 365.63707 368.1396 365.43134 367.49377 365.43134 curveto
366.71773 365.43134 366.10575 365.67874 365.65784 366.17352 curveto
365.20992 366.66832 364.98596 367.3428 364.98596 368.19696 curveto
364.98596 373.14227 lineto
363.54065 373.14227 lineto
363.54065 364.39227 lineto
364.98596 364.39227 lineto
364.98596 365.75165 lineto
365.32971 365.22561 365.73335 364.83239 366.1969 364.57196 curveto
366.66564 364.31155 367.20471 364.18134 367.81409 364.18134 curveto
368.81929 364.18134 369.5797 364.49384 370.09534 365.11884 curveto
370.61095 365.73863 370.86877 366.6527 370.86877 367.86102 curveto
380.03284 368.77509 moveto
380.03283 367.7178 379.81408 366.88968 379.37659 366.29071 curveto
378.94429 365.68655 378.34793 365.38447 377.58752 365.38446 curveto
376.8271 365.38447 376.22815 365.68655 375.79065 366.29071 curveto
375.35835 366.88968 375.14221 367.7178 375.14221 368.77509 curveto
375.14221 369.83238 375.35835 370.66311 375.79065 371.26727 curveto
376.22815 371.86623 376.8271 372.16571 377.58752 372.16571 curveto
378.34793 372.16571 378.94429 371.86623 379.37659 371.26727 curveto
379.81408 370.66311 380.03283 369.83238 380.03284 368.77509 curveto
375.14221 365.7204 moveto
375.44429 365.19957 375.8245 364.81416 376.28284 364.56415 curveto
376.74637 364.30895 377.29846 364.18134 377.93909 364.18134 curveto
379.00158 364.18134 379.86356 364.60322 380.52502 365.44696 curveto
381.19168 366.29072 381.52502 367.40009 381.52502 368.77509 curveto
381.52502 370.15009 381.19168 371.25946 380.52502 372.10321 curveto
379.86356 372.94696 379.00158 373.36884 377.93909 373.36884 curveto
377.29846 373.36884 376.74637 373.24384 376.28284 372.99384 curveto
375.8245 372.73863 375.44429 372.35061 375.14221 371.82977 curveto
375.14221 373.14227 lineto
373.6969 373.14227 lineto
373.6969 360.98602 lineto
375.14221 360.98602 lineto
375.14221 365.7204 lineto
383.7594 369.68915 moveto
383.7594 364.39227 lineto
385.1969 364.39227 lineto
385.1969 369.63446 lineto
385.1969 370.46259 385.35835 371.08498 385.68127 371.50165 curveto
386.00419 371.91311 386.48856 372.11884 387.1344 372.11884 curveto
387.91044 372.11884 388.52241 371.87144 388.97034 371.37665 curveto
389.42345 370.88186 389.65002 370.20738 389.65002 369.35321 curveto
389.65002 364.39227 lineto
391.08752 364.39227 lineto
391.08752 373.14227 lineto
389.65002 373.14227 lineto
389.65002 371.79852 lineto
389.30106 372.32977 388.89481 372.72561 388.43127 372.98602 curveto
387.97294 373.24123 387.43908 373.36884 386.82971 373.36884 curveto
385.8245 373.36884 385.06148 373.05634 384.54065 372.43134 curveto
384.01981 371.80634 383.7594 370.89228 383.7594 369.68915 curveto
399.1344 365.73602 moveto
398.97293 365.64228 398.79585 365.57457 398.60315 365.5329 curveto
398.41564 365.48603 398.20731 365.46259 397.97815 365.46259 curveto
397.16564 365.46259 396.54065 365.72822 396.10315 366.25946 curveto
395.67085 366.78551 395.45471 367.54332 395.45471 368.5329 curveto
395.45471 373.14227 lineto
394.0094 373.14227 lineto
394.0094 364.39227 lineto
395.45471 364.39227 lineto
395.45471 365.75165 lineto
395.75679 365.22041 396.15002 364.82718 396.6344 364.57196 curveto
397.11877 364.31155 397.70731 364.18134 398.40002 364.18134 curveto
398.49898 364.18134 398.60835 364.18916 398.72815 364.20477 curveto
398.84793 364.2152 398.98075 364.23343 399.12659 364.25946 curveto
399.1344 365.73602 lineto
406.1344 368.66571 moveto
406.13439 367.62405 405.91825 366.81676 405.48596 366.24384 curveto
405.05887 365.67093 404.45731 365.38447 403.68127 365.38446 curveto
402.91044 365.38447 402.30888 365.67093 401.87659 366.24384 curveto
401.4495 366.81676 401.23596 367.62405 401.23596 368.66571 curveto
401.23596 369.70217 401.4495 370.50686 401.87659 371.07977 curveto
402.30888 371.65269 402.91044 371.93915 403.68127 371.93915 curveto
404.45731 371.93915 405.05887 371.65269 405.48596 371.07977 curveto
405.91825 370.50686 406.13439 369.70217 406.1344 368.66571 curveto
407.5719 372.05634 moveto
407.57189 373.54592 407.24116 374.65269 406.57971 375.37665 curveto
405.91825 376.10581 404.90523 376.47039 403.54065 376.4704 curveto
403.03544 376.47039 402.55887 376.43133 402.11096 376.35321 curveto
401.66304 376.28029 401.22815 376.16571 400.80627 376.00946 curveto
400.80627 374.61102 lineto
401.22815 374.84019 401.64481 375.00946 402.05627 375.11884 curveto
402.46773 375.22821 402.887 375.2829 403.31409 375.2829 curveto
404.25679 375.2829 404.96252 375.0355 405.43127 374.54071 curveto
405.90002 374.05113 406.13439 373.30894 406.1344 372.31415 curveto
406.1344 371.60321 lineto
405.83752 372.11884 405.45731 372.50425 404.99377 372.75946 curveto
404.53023 373.01467 403.97554 373.14227 403.32971 373.14227 curveto
402.25679 373.14227 401.39221 372.73342 400.73596 371.91571 curveto
400.07971 371.098 399.75159 370.01467 399.75159 368.66571 curveto
399.75159 367.31155 400.07971 366.22561 400.73596 365.4079 curveto
401.39221 364.5902 402.25679 364.18134 403.32971 364.18134 curveto
403.97554 364.18134 404.53023 364.30895 404.99377 364.56415 curveto
405.45731 364.81936 405.83752 365.20478 406.1344 365.7204 curveto
406.1344 364.39227 lineto
407.5719 364.39227 lineto
407.5719 372.05634 lineto
417.80627 367.86102 moveto
417.80627 373.14227 lineto
416.36877 373.14227 lineto
416.36877 367.9079 lineto
416.36877 367.07978 416.20731 366.45999 415.8844 366.04852 curveto
415.56148 365.63707 415.0771 365.43134 414.43127 365.43134 curveto
413.65523 365.43134 413.04325 365.67874 412.59534 366.17352 curveto
412.14742 366.66832 411.92346 367.3428 411.92346 368.19696 curveto
411.92346 373.14227 lineto
410.47815 373.14227 lineto
410.47815 360.98602 lineto
411.92346 360.98602 lineto
411.92346 365.75165 lineto
412.26721 365.22561 412.67085 364.83239 413.1344 364.57196 curveto
413.60314 364.31155 414.14221 364.18134 414.75159 364.18134 curveto
415.75679 364.18134 416.5172 364.49384 417.03284 365.11884 curveto
417.54845 365.73863 417.80627 366.6527 417.80627 367.86102 curveto
421.05627 371.1579 moveto
422.70471 371.1579 lineto
422.70471 372.50165 lineto
421.42346 375.00165 lineto
420.41565 375.00165 lineto
421.05627 372.50165 lineto
421.05627 371.1579 lineto
437.93127 361.86102 moveto
437.93127 363.40009 lineto
437.33231 363.11364 436.7672 362.9001 436.23596 362.75946 curveto
435.70471 362.61885 435.19169 362.54853 434.6969 362.54852 curveto
433.83752 362.54853 433.17346 362.7152 432.70471 363.04852 curveto
432.24117 363.38187 432.0094 363.85582 432.0094 364.4704 curveto
432.0094 364.98603 432.16304 365.37666 432.47034 365.64227 curveto
432.78283 365.9027 433.37137 366.11363 434.23596 366.27509 curveto
435.18909 366.4704 lineto
436.36616 366.69436 437.23335 367.0902 437.79065 367.6579 curveto
438.35314 368.2204 438.63439 368.97561 438.6344 369.92352 curveto
438.63439 371.05373 438.25418 371.9105 437.49377 372.49384 curveto
436.73856 373.07717 435.62918 373.36884 434.16565 373.36884 curveto
433.61356 373.36884 433.02502 373.30634 432.40002 373.18134 curveto
431.78023 373.05634 431.137 372.87144 430.47034 372.62665 curveto
430.47034 371.00165 lineto
431.11096 371.36102 431.73856 371.63186 432.35315 371.81415 curveto
432.96773 371.99644 433.5719 372.08759 434.16565 372.08759 curveto
435.06669 372.08759 435.762 371.9105 436.25159 371.55634 curveto
436.74116 371.20217 436.98595 370.69696 436.98596 370.04071 curveto
436.98595 369.4678 436.80887 369.01988 436.45471 368.69696 curveto
436.10575 368.37405 435.53023 368.13186 434.72815 367.9704 curveto
433.76721 367.7829 lineto
432.59013 367.54853 431.73856 367.18134 431.21252 366.68134 curveto
430.68648 366.18134 430.42346 365.48603 430.42346 364.5954 curveto
430.42346 363.56416 430.78544 362.75166 431.5094 362.1579 curveto
432.23856 361.56416 433.24117 361.26728 434.51721 361.26727 curveto
435.06408 361.26728 435.62137 361.31676 436.18909 361.41571 curveto
436.75679 361.51468 437.33752 361.66312 437.93127 361.86102 curveto
447.32971 364.72821 moveto
447.32971 366.07196 lineto
446.92345 365.84801 446.5146 365.68134 446.10315 365.57196 curveto
445.69689 365.45738 445.28544 365.40009 444.86877 365.40009 curveto
443.93648 365.40009 443.21252 365.69697 442.6969 366.29071 curveto
442.18127 366.87926 441.92346 367.70738 441.92346 368.77509 curveto
441.92346 369.8428 442.18127 370.67353 442.6969 371.26727 curveto
443.21252 371.85582 443.93648 372.15009 444.86877 372.15009 curveto
445.28544 372.15009 445.69689 372.0954 446.10315 371.98602 curveto
446.5146 371.87144 446.92345 371.70217 447.32971 371.47821 curveto
447.32971 372.80634 lineto
446.92866 372.99384 446.512 373.13446 446.07971 373.22821 curveto
445.65262 373.32196 445.19689 373.36884 444.71252 373.36884 curveto
443.39481 373.36884 442.34794 372.95477 441.5719 372.12665 curveto
440.79586 371.29852 440.40784 370.18134 440.40784 368.77509 curveto
440.40784 367.34801 440.79846 366.22561 441.57971 365.4079 curveto
442.36617 364.5902 443.44169 364.18134 444.80627 364.18134 curveto
445.24898 364.18134 445.68127 364.22822 446.10315 364.32196 curveto
446.52502 364.41051 446.93387 364.54593 447.32971 364.72821 curveto
453.23596 365.40009 moveto
452.46512 365.40009 451.85575 365.70218 451.40784 366.30634 curveto
450.95992 366.9053 450.73596 367.72822 450.73596 368.77509 curveto
450.73596 369.82196 450.95731 370.64748 451.40002 371.25165 curveto
451.84794 371.85061 452.45992 372.15009 453.23596 372.15009 curveto
454.00158 372.15009 454.60835 371.848 455.05627 371.24384 curveto
455.50418 370.63967 455.72814 369.81676 455.72815 368.77509 curveto
455.72814 367.73863 455.50418 366.91832 455.05627 366.31415 curveto
454.60835 365.70478 454.00158 365.40009 453.23596 365.40009 curveto
453.23596 364.18134 moveto
454.48596 364.18134 455.46773 364.58759 456.18127 365.40009 curveto
456.89481 366.21259 457.25158 367.33759 457.25159 368.77509 curveto
457.25158 370.20738 456.89481 371.33238 456.18127 372.15009 curveto
455.46773 372.96259 454.48596 373.36884 453.23596 373.36884 curveto
451.98075 373.36884 450.99638 372.96259 450.28284 372.15009 curveto
449.5745 371.33238 449.22034 370.20738 449.22034 368.77509 curveto
449.22034 367.33759 449.5745 366.21259 450.28284 365.40009 curveto
450.99638 364.58759 451.98075 364.18134 453.23596 364.18134 curveto
461.04846 361.9079 moveto
461.04846 364.39227 lineto
464.0094 364.39227 lineto
464.0094 365.50946 lineto
461.04846 365.50946 lineto
461.04846 370.25946 lineto
461.04846 370.973 461.14481 371.43134 461.33752 371.63446 curveto
461.53544 371.83759 461.93387 371.93915 462.53284 371.93915 curveto
464.0094 371.93915 lineto
464.0094 373.14227 lineto
462.53284 373.14227 lineto
461.42346 373.14227 460.65783 372.93654 460.23596 372.52509 curveto
459.81409 372.10842 459.60315 371.35321 459.60315 370.25946 curveto
459.60315 365.50946 lineto
458.54846 365.50946 lineto
458.54846 364.39227 lineto
459.60315 364.39227 lineto
459.60315 361.9079 lineto
461.04846 361.9079 lineto
465.90784 360.98602 moveto
467.34534 360.98602 lineto
467.34534 373.14227 lineto
465.90784 373.14227 lineto
465.90784 360.98602 lineto
474.3219 368.74384 moveto
473.16044 368.74384 472.35575 368.87665 471.90784 369.14227 curveto
471.45992 369.4079 471.23596 369.86103 471.23596 370.50165 curveto
471.23596 371.01207 471.40263 371.41832 471.73596 371.7204 curveto
472.0745 372.01727 472.53283 372.16571 473.11096 372.16571 curveto
473.90783 372.16571 474.54585 371.88446 475.02502 371.32196 curveto
475.50939 370.75425 475.75158 370.00165 475.75159 369.06415 curveto
475.75159 368.74384 lineto
474.3219 368.74384 lineto
477.18909 368.15009 moveto
477.18909 373.14227 lineto
475.75159 373.14227 lineto
475.75159 371.81415 lineto
475.42346 372.3454 475.0146 372.73863 474.52502 372.99384 curveto
474.03544 373.24384 473.43648 373.36884 472.72815 373.36884 curveto
471.83231 373.36884 471.11877 373.11884 470.58752 372.61884 curveto
470.06148 372.11363 469.79846 371.43915 469.79846 370.5954 curveto
469.79846 369.61103 470.12659 368.86884 470.78284 368.36884 curveto
471.44429 367.86884 472.42867 367.61884 473.73596 367.61884 curveto
475.75159 367.61884 lineto
475.75159 367.47821 lineto
475.75158 366.81676 475.53283 366.30634 475.09534 365.94696 curveto
474.66304 365.58238 474.05367 365.40009 473.26721 365.40009 curveto
472.76721 365.40009 472.28023 365.45999 471.80627 365.57977 curveto
471.33231 365.69957 470.87658 365.87926 470.43909 366.11884 curveto
470.43909 364.79071 lineto
470.96513 364.58759 471.47554 364.43655 471.97034 364.33759 curveto
472.46512 364.23343 472.9469 364.18134 473.41565 364.18134 curveto
474.68127 364.18134 475.62658 364.50947 476.25159 365.16571 curveto
476.87658 365.82197 477.18908 366.81676 477.18909 368.15009 curveto
487.43127 367.86102 moveto
487.43127 373.14227 lineto
485.99377 373.14227 lineto
485.99377 367.9079 lineto
485.99377 367.07978 485.83231 366.45999 485.5094 366.04852 curveto
485.18648 365.63707 484.7021 365.43134 484.05627 365.43134 curveto
483.28023 365.43134 482.66825 365.67874 482.22034 366.17352 curveto
481.77242 366.66832 481.54846 367.3428 481.54846 368.19696 curveto
481.54846 373.14227 lineto
480.10315 373.14227 lineto
480.10315 364.39227 lineto
481.54846 364.39227 lineto
481.54846 365.75165 lineto
481.89221 365.22561 482.29585 364.83239 482.7594 364.57196 curveto
483.22814 364.31155 483.76721 364.18134 484.37659 364.18134 curveto
485.38179 364.18134 486.1422 364.49384 486.65784 365.11884 curveto
487.17345 365.73863 487.43127 366.6527 487.43127 367.86102 curveto
496.0719 365.7204 moveto
496.0719 360.98602 lineto
497.5094 360.98602 lineto
497.5094 373.14227 lineto
496.0719 373.14227 lineto
496.0719 371.82977 lineto
495.76981 372.35061 495.387 372.73863 494.92346 372.99384 curveto
494.46512 373.24384 493.91304 373.36884 493.26721 373.36884 curveto
492.20992 373.36884 491.34794 372.94696 490.68127 372.10321 curveto
490.01981 371.25946 489.68909 370.15009 489.68909 368.77509 curveto
489.68909 367.40009 490.01981 366.29072 490.68127 365.44696 curveto
491.34794 364.60322 492.20992 364.18134 493.26721 364.18134 curveto
493.91304 364.18134 494.46512 364.30895 494.92346 364.56415 curveto
495.387 364.81416 495.76981 365.19957 496.0719 365.7204 curveto
491.17346 368.77509 moveto
491.17346 369.83238 491.38961 370.66311 491.8219 371.26727 curveto
492.2594 371.86623 492.85835 372.16571 493.61877 372.16571 curveto
494.37919 372.16571 494.97814 371.86623 495.41565 371.26727 curveto
495.85314 370.66311 496.07189 369.83238 496.0719 368.77509 curveto
496.07189 367.7178 495.85314 366.88968 495.41565 366.29071 curveto
494.97814 365.68655 494.37919 365.38447 493.61877 365.38446 curveto
492.85835 365.38447 492.2594 365.68655 491.8219 366.29071 curveto
491.38961 366.88968 491.17346 367.7178 491.17346 368.77509 curveto
fill
grestore
gsave
0 0 0 setrgbcolor
newpath
364.11877 392.41754 moveto
366.6969 392.41754 lineto
366.6969 383.5191 lineto
363.89221 384.0816 lineto
363.89221 382.6441 lineto
366.68127 382.0816 lineto
368.2594 382.0816 lineto
368.2594 392.41754 lineto
370.83752 392.41754 lineto
370.83752 393.74567 lineto
364.11877 393.74567 lineto
364.11877 392.41754 lineto
373.6344 382.0816 moveto
381.1344 382.0816 lineto
381.1344 382.75348 lineto
376.90002 393.74567 lineto
375.25159 393.74567 lineto
379.23596 383.40973 lineto
373.6344 383.40973 lineto
373.6344 382.0816 lineto
382.5094 388.80035 moveto
392.68909 388.80035 lineto
392.68909 389.92535 lineto
382.5094 389.92535 lineto
382.5094 388.80035 lineto
395.76721 392.41754 moveto
401.27502 392.41754 lineto
401.27502 393.74567 lineto
393.86877 393.74567 lineto
393.86877 392.41754 lineto
394.46773 391.79775 395.28283 390.96702 396.31409 389.92535 curveto
397.35054 388.87848 398.00158 388.20401 398.26721 387.90192 curveto
398.77241 387.33421 399.12398 386.85505 399.3219 386.46442 curveto
399.52502 386.06859 399.62658 385.68057 399.62659 385.30035 curveto
399.62658 384.68057 399.40783 384.17536 398.97034 383.78473 curveto
398.53804 383.39411 397.97294 383.1988 397.27502 383.19879 curveto
396.78023 383.1988 396.25679 383.28474 395.70471 383.4566 curveto
395.15783 383.62849 394.5719 383.88891 393.9469 384.23785 curveto
393.9469 382.6441 lineto
394.58231 382.38891 395.17606 382.1962 395.72815 382.06598 curveto
396.28023 381.93578 396.78544 381.87068 397.24377 381.87067 curveto
398.4521 381.87068 399.41564 382.17276 400.1344 382.77692 curveto
400.85314 383.38109 401.21252 384.18838 401.21252 385.19879 curveto
401.21252 385.67797 401.12137 386.13369 400.93909 386.56598 curveto
400.762 386.99307 400.43648 387.49828 399.96252 388.0816 curveto
399.83231 388.23265 399.41825 388.67015 398.72034 389.3941 curveto
398.02241 390.11286 397.03804 391.12067 395.76721 392.41754 curveto
409.37659 387.4566 moveto
410.13179 387.61807 410.72033 387.95401 411.14221 388.46442 curveto
411.56929 388.97484 411.78283 389.60505 411.78284 390.35504 curveto
411.78283 391.50609 411.387 392.39671 410.59534 393.02692 curveto
409.80366 393.65712 408.67866 393.97223 407.22034 393.97223 curveto
406.73075 393.97223 406.22554 393.92275 405.70471 393.82379 curveto
405.18908 393.73004 404.65523 393.58681 404.10315 393.3941 curveto
404.10315 391.87067 lineto
404.54065 392.12588 405.01981 392.31858 405.54065 392.44879 curveto
406.06148 392.579 406.60575 392.64411 407.17346 392.6441 curveto
408.16304 392.64411 408.91564 392.44879 409.43127 392.05817 curveto
409.9521 391.66754 410.21252 391.09984 410.21252 390.35504 curveto
410.21252 389.66755 409.97033 389.13109 409.48596 388.74567 curveto
409.00679 388.35505 408.33752 388.15973 407.47815 388.15973 curveto
406.11877 388.15973 lineto
406.11877 386.86285 lineto
407.54065 386.86285 lineto
408.31669 386.86286 408.91044 386.70922 409.3219 386.40192 curveto
409.73335 386.08942 409.93908 385.64151 409.93909 385.05817 curveto
409.93908 384.45922 409.72554 384.00088 409.29846 383.68317 curveto
408.87658 383.36026 408.26981 383.1988 407.47815 383.19879 curveto
407.04585 383.1988 406.58231 383.24568 406.08752 383.33942 curveto
405.59273 383.43318 405.04846 383.57901 404.45471 383.77692 curveto
404.45471 382.37067 lineto
405.05367 382.20401 405.61356 382.07901 406.1344 381.99567 curveto
406.66044 381.91235 407.15523 381.87068 407.61877 381.87067 curveto
408.81669 381.87068 409.7646 382.14412 410.46252 382.69098 curveto
411.16043 383.23266 411.50939 383.96703 411.5094 384.8941 curveto
411.50939 385.53995 411.3245 386.08682 410.95471 386.53473 curveto
410.58491 386.97744 410.05887 387.28474 409.37659 387.4566 curveto
419.73596 382.0816 moveto
421.31409 382.0816 lineto
421.31409 392.93317 lineto
421.31408 394.33942 421.04585 395.36025 420.5094 395.99567 curveto
419.97815 396.63108 419.12138 396.94879 417.93909 396.94879 curveto
417.33752 396.94879 lineto
417.33752 395.62067 lineto
417.82971 395.62067 lineto
418.52763 395.62066 419.01982 395.42535 419.30627 395.03473 curveto
419.59273 394.6441 419.73596 393.94358 419.73596 392.93317 curveto
419.73596 382.0816 lineto
424.24377 390.29254 moveto
424.24377 384.99567 lineto
425.68127 384.99567 lineto
425.68127 390.23785 lineto
425.68127 391.06598 425.84273 391.68838 426.16565 392.10504 curveto
426.48856 392.5165 426.97294 392.72223 427.61877 392.72223 curveto
428.39481 392.72223 429.00679 392.47483 429.45471 391.98004 curveto
429.90783 391.48525 430.13439 390.81077 430.1344 389.9566 curveto
430.1344 384.99567 lineto
431.5719 384.99567 lineto
431.5719 393.74567 lineto
430.1344 393.74567 lineto
430.1344 392.40192 lineto
429.78543 392.93317 429.37918 393.329 428.91565 393.58942 curveto
428.45731 393.84462 427.92346 393.97223 427.31409 393.97223 curveto
426.30888 393.97223 425.54586 393.65973 425.02502 393.03473 curveto
424.50419 392.40973 424.24377 391.49567 424.24377 390.29254 curveto
441.8219 388.46442 moveto
441.8219 393.74567 lineto
440.3844 393.74567 lineto
440.3844 388.51129 lineto
440.38439 387.68317 440.22293 387.06338 439.90002 386.65192 curveto
439.5771 386.24047 439.09273 386.03474 438.4469 386.03473 curveto
437.67085 386.03474 437.05887 386.28213 436.61096 386.77692 curveto
436.16304 387.27171 435.93908 387.94619 435.93909 388.80035 curveto
435.93909 393.74567 lineto
434.49377 393.74567 lineto
434.49377 384.99567 lineto
435.93909 384.99567 lineto
435.93909 386.35504 lineto
436.28283 385.82901 436.68648 385.43578 437.15002 385.17535 curveto
437.61877 384.91495 438.15783 384.78474 438.76721 384.78473 curveto
439.77241 384.78474 440.53283 385.09724 441.04846 385.72223 curveto
441.56408 386.34203 441.82189 387.25609 441.8219 388.46442 curveto
452.18909 389.01129 moveto
452.18909 389.71442 lineto
445.57971 389.71442 lineto
445.64221 390.704 445.93908 391.45921 446.47034 391.98004 curveto
447.00679 392.49567 447.75158 392.75348 448.70471 392.75348 curveto
449.25679 392.75348 449.79064 392.68577 450.30627 392.55035 curveto
450.8271 392.41494 451.34272 392.21181 451.85315 391.94098 curveto
451.85315 393.30035 lineto
451.33752 393.5191 450.80887 393.68577 450.26721 393.80035 curveto
449.72554 393.91494 449.17606 393.97223 448.61877 393.97223 curveto
447.22294 393.97223 446.11617 393.56598 445.29846 392.75348 curveto
444.48596 391.94098 444.07971 390.84202 444.07971 389.4566 curveto
444.07971 388.02432 444.46513 386.8889 445.23596 386.05035 curveto
446.012 385.20661 447.05627 384.78474 448.36877 384.78473 curveto
449.54585 384.78474 450.47554 385.16495 451.15784 385.92535 curveto
451.84533 386.68057 452.18908 387.70921 452.18909 389.01129 curveto
450.75159 388.58942 moveto
450.74116 387.80296 450.51981 387.17536 450.08752 386.7066 curveto
449.66043 386.23786 449.09273 386.00349 448.3844 386.00348 curveto
447.58231 386.00349 446.93908 386.23005 446.45471 386.68317 curveto
445.97554 387.1363 445.6995 387.77432 445.62659 388.59723 curveto
450.75159 388.58942 lineto
461.20471 392.41754 moveto
466.71252 392.41754 lineto
466.71252 393.74567 lineto
459.30627 393.74567 lineto
459.30627 392.41754 lineto
459.90523 391.79775 460.72033 390.96702 461.75159 389.92535 curveto
462.78804 388.87848 463.43908 388.20401 463.70471 387.90192 curveto
464.20991 387.33421 464.56148 386.85505 464.7594 386.46442 curveto
464.96252 386.06859 465.06408 385.68057 465.06409 385.30035 curveto
465.06408 384.68057 464.84533 384.17536 464.40784 383.78473 curveto
463.97554 383.39411 463.41044 383.1988 462.71252 383.19879 curveto
462.21773 383.1988 461.69429 383.28474 461.14221 383.4566 curveto
460.59533 383.62849 460.0094 383.88891 459.3844 384.23785 curveto
459.3844 382.6441 lineto
460.01981 382.38891 460.61356 382.1962 461.16565 382.06598 curveto
461.71773 381.93578 462.22294 381.87068 462.68127 381.87067 curveto
463.8896 381.87068 464.85314 382.17276 465.5719 382.77692 curveto
466.29064 383.38109 466.65002 384.18838 466.65002 385.19879 curveto
466.65002 385.67797 466.55887 386.13369 466.37659 386.56598 curveto
466.1995 386.99307 465.87398 387.49828 465.40002 388.0816 curveto
465.26981 388.23265 464.85575 388.67015 464.15784 389.3941 curveto
463.45991 390.11286 462.47554 391.12067 461.20471 392.41754 curveto
473.40784 383.12067 moveto
472.59533 383.12068 471.98335 383.52172 471.5719 384.32379 curveto
471.16565 385.12068 470.96252 386.32119 470.96252 387.92535 curveto
470.96252 389.52432 471.16565 390.72484 471.5719 391.52692 curveto
471.98335 392.32379 472.59533 392.72223 473.40784 392.72223 curveto
474.22554 392.72223 474.83752 392.32379 475.24377 391.52692 curveto
475.65523 390.72484 475.86095 389.52432 475.86096 387.92535 curveto
475.86095 386.32119 475.65523 385.12068 475.24377 384.32379 curveto
474.83752 383.52172 474.22554 383.12068 473.40784 383.12067 curveto
473.40784 381.87067 moveto
474.71512 381.87068 475.71252 382.38891 476.40002 383.42535 curveto
477.09272 384.45661 477.43908 385.95661 477.43909 387.92535 curveto
477.43908 389.8889 477.09272 391.3889 476.40002 392.42535 curveto
475.71252 393.4566 474.71512 393.97223 473.40784 393.97223 curveto
472.10054 393.97223 471.10054 393.4566 470.40784 392.42535 curveto
469.72034 391.3889 469.37659 389.8889 469.37659 387.92535 curveto
469.37659 385.95661 469.72034 384.45661 470.40784 383.42535 curveto
471.10054 382.38891 472.10054 381.87068 473.40784 381.87067 curveto
483.59534 383.12067 moveto
482.78283 383.12068 482.17085 383.52172 481.7594 384.32379 curveto
481.35315 385.12068 481.15002 386.32119 481.15002 387.92535 curveto
481.15002 389.52432 481.35315 390.72484 481.7594 391.52692 curveto
482.17085 392.32379 482.78283 392.72223 483.59534 392.72223 curveto
484.41304 392.72223 485.02502 392.32379 485.43127 391.52692 curveto
485.84273 390.72484 486.04845 389.52432 486.04846 387.92535 curveto
486.04845 386.32119 485.84273 385.12068 485.43127 384.32379 curveto
485.02502 383.52172 484.41304 383.12068 483.59534 383.12067 curveto
483.59534 381.87067 moveto
484.90262 381.87068 485.90002 382.38891 486.58752 383.42535 curveto
487.28022 384.45661 487.62658 385.95661 487.62659 387.92535 curveto
487.62658 389.8889 487.28022 391.3889 486.58752 392.42535 curveto
485.90002 393.4566 484.90262 393.97223 483.59534 393.97223 curveto
482.28804 393.97223 481.28804 393.4566 480.59534 392.42535 curveto
479.90784 391.3889 479.56409 389.8889 479.56409 387.92535 curveto
479.56409 385.95661 479.90784 384.45661 480.59534 383.42535 curveto
481.28804 382.38891 482.28804 381.87068 483.59534 381.87067 curveto
490.0094 382.0816 moveto
497.5094 382.0816 lineto
497.5094 382.75348 lineto
493.27502 393.74567 lineto
491.62659 393.74567 lineto
495.61096 383.40973 lineto
490.0094 383.40973 lineto
490.0094 382.0816 lineto
fill
grestore
gsave
0 0 0 setrgbcolor
newpath
260.0854 320.06027 moveto
260.0854 341.41183 lineto
263.31978 341.41183 lineto
267.00726 341.41184 269.81976 340.49778 271.75728 338.66965 curveto
273.71038 336.84153 274.68694 334.18529 274.68697 330.7009 curveto
274.68694 327.23217 273.71819 324.59155 271.78072 322.77902 curveto
269.84319 320.96655 267.02288 320.0603 263.31978 320.06027 curveto
260.0854 320.06027 lineto
251.06197 313.23996 moveto
260.57759 313.23996 lineto
265.89007 313.23999 269.84319 313.62281 272.43697 314.3884 curveto
275.04631 315.13843 277.28069 316.41968 279.14009 318.23215 curveto
280.78068 319.8103 281.99943 321.63061 282.79634 323.69308 curveto
283.59318 325.75561 283.99162 328.09154 283.99165 330.7009 curveto
283.99162 333.34154 283.59318 335.70091 282.79634 337.77902 curveto
281.99943 339.84153 280.78068 341.66184 279.14009 343.23996 curveto
277.26506 345.05246 275.01506 346.34152 272.39009 347.10715 curveto
269.76507 347.85715 265.82757 348.23215 260.57759 348.23215 curveto
251.06197 348.23215 lineto
251.06197 313.23996 lineto
314.51367 335.03683 moveto
314.51367 337.42746 lineto
294.89648 337.42746 lineto
295.09959 339.39622 295.81053 340.87278 297.02929 341.85715 curveto
298.24803 342.84153 299.95115 343.33371 302.13867 343.33371 curveto
303.90427 343.33371 305.70896 343.0759 307.55273 342.56027 curveto
309.41208 342.02903 311.31833 341.23215 313.27148 340.16965 curveto
313.27148 346.6384 lineto
311.28708 347.3884 309.30271 347.9509 307.31836 348.3259 curveto
305.33396 348.71652 303.34959 348.91183 301.36523 348.91183 curveto
296.61522 348.91183 292.91991 347.70871 290.27929 345.30246 curveto
287.65429 342.88059 286.34179 339.48997 286.34179 335.13058 curveto
286.34179 330.84935 287.63085 327.48217 290.20898 325.02902 curveto
292.80272 322.57592 296.36522 321.34936 300.89648 321.34933 curveto
305.02146 321.34936 308.31833 322.59155 310.78711 325.0759 curveto
313.27145 327.56029 314.51364 330.8806 314.51367 335.03683 curveto
305.88867 332.24777 moveto
305.88865 330.65404 305.4199 329.37279 304.48242 328.40402 curveto
303.56052 327.41967 302.34959 326.92748 300.84961 326.92746 curveto
299.22459 326.92748 297.90428 327.38842 296.88867 328.31027 curveto
295.87303 329.21654 295.24022 330.52904 294.99023 332.24777 curveto
305.88867 332.24777 lineto
332.59037 342.81808 moveto
334.38723 342.81809 335.75441 342.16184 336.69193 340.84933 curveto
337.64503 339.53684 338.1216 337.6306 338.12162 335.13058 curveto
338.1216 332.6306 337.64503 330.72435 336.69193 329.41183 curveto
335.75441 328.09935 334.38723 327.44311 332.59037 327.44308 curveto
330.79348 327.44311 329.41067 328.10717 328.44193 329.43527 curveto
327.48879 330.74779 327.01223 332.64623 327.01225 335.13058 curveto
327.01223 337.61497 327.48879 339.52122 328.44193 340.84933 curveto
329.41067 342.16184 330.79348 342.81809 332.59037 342.81808 curveto
327.01225 325.8259 moveto
328.16848 324.29467 329.44973 323.16967 330.856 322.4509 curveto
332.26223 321.71655 333.87941 321.34936 335.70756 321.34933 curveto
338.94191 321.34936 341.59816 322.63842 343.67631 325.21652 curveto
345.7544 327.77904 346.79346 331.08373 346.7935 335.13058 curveto
346.79346 339.17747 345.7544 342.48997 343.67631 345.06808 curveto
341.59816 347.63059 338.94191 348.91183 335.70756 348.91183 curveto
333.87941 348.91183 332.26223 348.55246 330.856 347.83371 curveto
329.44973 347.09934 328.16848 345.96652 327.01225 344.43527 curveto
327.01225 348.23215 lineto
318.62162 348.23215 lineto
318.62162 311.7634 lineto
327.01225 311.7634 lineto
327.01225 325.8259 lineto
381.15287 346.31027 moveto
379.49659 347.16965 377.77003 347.81809 375.97318 348.25558 curveto
374.17628 348.69308 372.30128 348.91183 370.34818 348.91183 curveto
364.52004 348.91183 359.90286 347.28684 356.49662 344.03683 curveto
353.09037 340.77122 351.38724 336.34935 351.38725 330.77121 curveto
351.38724 325.17748 353.09037 320.75561 356.49662 317.50558 curveto
359.90286 314.23999 364.52004 312.60718 370.34818 312.60715 curveto
372.30128 312.60718 374.17628 312.82593 375.97318 313.2634 curveto
377.77003 313.70093 379.49659 314.34937 381.15287 315.20871 curveto
381.15287 322.4509 lineto
379.48096 321.3103 377.83253 320.47436 376.20756 319.94308 curveto
374.58253 319.41186 372.8716 319.14624 371.07475 319.14621 curveto
367.85598 319.14624 365.32473 320.17749 363.481 322.23996 curveto
361.63723 324.30248 360.71536 327.14623 360.71537 330.77121 curveto
360.71536 334.3806 361.63723 337.21653 363.481 339.27902 curveto
365.32473 341.34153 367.85598 342.37278 371.07475 342.37277 curveto
372.8716 342.37278 374.58253 342.10715 376.20756 341.5759 curveto
377.83253 341.04465 379.48096 340.20872 381.15287 339.06808 curveto
381.15287 346.31027 lineto
398.54988 327.34933 moveto
396.69049 327.34936 395.26862 328.02123 394.28426 329.36496 curveto
393.31549 330.6931 392.83112 332.61498 392.83113 335.13058 curveto
392.83112 337.64622 393.31549 339.57591 394.28426 340.91965 curveto
395.26862 342.24778 396.69049 342.91184 398.54988 342.91183 curveto
400.37799 342.91184 401.77642 342.24778 402.74519 340.91965 curveto
403.71392 339.57591 404.1983 337.64622 404.19832 335.13058 curveto
404.1983 332.61498 403.71392 330.6931 402.74519 329.36496 curveto
401.77642 328.02123 400.37799 327.34936 398.54988 327.34933 curveto
398.54988 321.34933 moveto
403.06548 321.34936 406.58892 322.56811 409.12019 325.00558 curveto
411.66704 327.44311 412.94048 330.8181 412.94051 335.13058 curveto
412.94048 339.44309 411.66704 342.81809 409.12019 345.25558 curveto
406.58892 347.69309 403.06548 348.91183 398.54988 348.91183 curveto
394.01862 348.91183 390.47175 347.69309 387.90926 345.25558 curveto
385.36238 342.81809 384.08894 339.44309 384.08894 335.13058 curveto
384.08894 330.8181 385.36238 327.44311 387.90926 325.00558 curveto
390.47175 322.56811 394.01862 321.34936 398.54988 321.34933 curveto
443.22815 332.24777 moveto
443.22815 348.23215 lineto
434.79065 348.23215 lineto
434.79065 345.63058 lineto
434.79065 335.99777 lineto
434.79063 333.73216 434.73594 332.16966 434.62659 331.31027 curveto
434.53282 330.45091 434.36094 329.8181 434.11096 329.41183 curveto
433.78282 328.86498 433.3375 328.4431 432.77502 328.14621 curveto
432.21251 327.83373 431.57188 327.67748 430.85315 327.67746 curveto
429.10313 327.67748 427.72813 328.35717 426.72815 329.71652 curveto
425.72814 331.06029 425.22814 332.92748 425.22815 335.31808 curveto
425.22815 348.23215 lineto
416.83752 348.23215 lineto
416.83752 321.98215 lineto
425.22815 321.98215 lineto
425.22815 325.8259 lineto
426.49376 324.29467 427.83751 323.16967 429.2594 322.4509 curveto
430.68126 321.71655 432.25157 321.34936 433.97034 321.34933 curveto
437.00156 321.34936 439.29844 322.27905 440.86096 324.1384 curveto
442.43906 325.99779 443.22812 328.70092 443.22815 332.24777 curveto
468.32971 311.7634 moveto
468.32971 317.27121 lineto
463.68909 317.27121 lineto
462.50157 317.27124 461.67345 317.48999 461.20471 317.92746 curveto
460.73595 318.34936 460.50157 319.09155 460.50159 320.15402 curveto
460.50159 321.98215 lineto
467.67346 321.98215 lineto
467.67346 327.98215 lineto
460.50159 327.98215 lineto
460.50159 348.23215 lineto
452.11096 348.23215 lineto
452.11096 327.98215 lineto
447.93909 327.98215 lineto
447.93909 321.98215 lineto
452.11096 321.98215 lineto
452.11096 320.15402 lineto
452.11096 317.29468 452.90783 315.18531 454.50159 313.8259 curveto
456.09533 312.45093 458.56408 311.76343 461.90784 311.7634 curveto
468.32971 311.7634 lineto
471.14221 313.23996 moveto
497.5094 313.23996 lineto
497.5094 318.3259 lineto
483.86877 348.23215 lineto
475.07971 348.23215 lineto
487.99377 319.87277 lineto
471.14221 319.87277 lineto
471.14221 313.23996 lineto
fill
grestore
grestore
showpage
%%EOF
